{
  "0": ".",
  "1": "you",
  "2": "?",
  "3": "is",
  "4": "the",
  "5": "i",
  "6": ",",
  "7": "a",
  "8": "to",
  "9": "[value_count]",
  "10": "for",
  "11": "and",
  "12": "in",
  "13": "have",
  "14": "would",
  "15": "there",
  "16": "like",
  "17": "are",
  "18": "at",
  "19": "number",
  "20": "your",
  "21": "can",
  "22": "that",
  "23": "of",
  "24": "[value_area]",
  "25": "else",
  "26": "anything",
  "27": "with",
  "28": "do",
  "29": "it",
  "30": "[value_time]",
  "31": "!",
  "32": "help",
  "33": "what",
  "34": "book",
  "35": "[restaurant_name]",
  "36": "reference",
  "37": "day",
  "38": "be",
  "39": "[value_pricerange]",
  "40": "will",
  "41": "[hotel_name]",
  "42": "[value_place]",
  "43": "-s",
  "44": "time",
  "45": "on",
  "46": "me",
  "47": "restaurant",
  "48": "or",
  "49": "area",
  "50": "[attraction_name]",
  "51": "was",
  "52": "price",
  "53": "town",
  "54": "[value_food]",
  "55": "booking",
  "56": "great",
  "57": "phone",
  "58": "need",
  "59": "located",
  "60": "[train_id]",
  "61": "range",
  "62": "welcome",
  "63": "hotel",
  "64": "train",
  "65": "booked",
  "66": "free",
  "67": "today",
  "68": "thank",
  "69": "how",
  "70": "re",
  "71": "any",
  "72": "sure",
  "73": "yes",
  "74": "from",
  "75": "s",
  "76": "their",
  "77": "we",
  "78": "many",
  "79": "postcode",
  "80": "no",
  "81": "[value_price]",
  "82": "successful",
  "83": "goodbye",
  "84": "address",
  "85": "food",
  "86": "[hotel_reference]",
  "87": "[value_day]",
  "88": "okay",
  "89": "reservation",
  "90": "stay",
  "91": "table",
  "92": "type",
  "93": "where",
  "94": "[restaurant_reference]",
  "95": "sorry",
  "96": "[train_reference]",
  "97": "m",
  "98": "they",
  "99": "fee",
  "100": "by",
  "101": "contact",
  "102": "information",
  "103": "if",
  "104": "want",
  "105": "[attraction_address]",
  "106": "minutes",
  "107": "[restaurant_address]",
  "108": "about",
  "109": "all",
  "110": "[taxi_type]",
  "111": "[taxi_phone]",
  "112": "enjoy",
  "113": "parking",
  "114": "has",
  "115": "leaves",
  "116": "star",
  "117": "trains",
  "118": "more",
  "119": "which",
  "120": "try",
  "121": "[attraction_phone]",
  "122": "arrive",
  "123": "an",
  "124": "looking",
  "125": "arrives",
  "126": "different",
  "127": "recommend",
  "128": "not",
  "129": "leave",
  "130": "this",
  "131": "guesthouse",
  "132": "prefer",
  "133": "pounds",
  "134": "[restaurant_phone]",
  "135": "place",
  "136": "but",
  "137": "another",
  "138": "n't",
  "139": "part",
  "140": "available",
  "141": "options",
  "142": "people",
  "143": "criteria",
  "144": "assist",
  "145": "station",
  "146": "using",
  "147": "priced",
  "148": "ok",
  "149": "preference",
  "150": "leaving",
  "151": "good",
  "152": "could",
  "153": "know",
  "154": "gbp",
  "155": "[restaurant_postcode]",
  "156": "[hotel_address]",
  "157": "travel",
  "158": "d",
  "159": "nice",
  "160": "-ly",
  "161": "total",
  "162": "please",
  "163": "[attraction_postcode]",
  "164": "entrance",
  "165": "make",
  "166": "room",
  "167": "may",
  "168": "work",
  "169": "taxi",
  "170": "departing",
  "171": "reserved",
  "172": "other",
  "173": "us",
  "174": "does",
  "175": "able",
  "176": "our",
  "177": "tickets",
  "178": "payable",
  "179": "guesthouses",
  "180": "destination",
  "181": "am",
  "182": "several",
  "183": "get",
  "184": "particular",
  "185": "found",
  "186": "departure",
  "187": "stars",
  "188": "internet",
  "189": "very",
  "190": "up",
  "191": "city",
  "192": "trip",
  "193": "them",
  "194": "find",
  "195": "as",
  "196": "interested",
  "197": "[hotel_phone]",
  "198": "wifi",
  "199": "arriving",
  "200": "specific",
  "201": "happy",
  "202": "towninfo",
  "203": "ticket",
  "204": "[hotel_postcode]",
  "205": "mind",
  "206": "attraction",
  "207": "glad",
  "208": "something",
  "209": "ve",
  "210": "when",
  "211": "side",
  "212": "those",
  "213": "did",
  "214": "both",
  "215": "cuisine",
  "216": "code",
  "217": "further",
  "218": "let",
  "219": "unfortunately",
  "220": "location",
  "221": "service",
  "222": "wonderful",
  "223": "nights",
  "224": "meet",
  "225": "serves",
  "226": "thanks",
  "227": "museum",
  "228": "been",
  "229": "center",
  "230": "so",
  "231": "down",
  "232": "visit",
  "233": "certainly",
  "234": "certain",
  "235": "go",
  "236": "look",
  "237": "narrow",
  "238": "my",
  "239": "needs",
  "240": "rating",
  "241": "contacting",
  "242": "assistance",
  "243": "traveling",
  "244": "attractions",
  "245": "hope",
  "246": "also",
  "247": "suggest",
  "248": "well",
  "249": "museums",
  "250": "depart",
  "251": "call",
  "252": "arrival",
  "253": "choose",
  "254": "set",
  "255": "post",
  "256": "car",
  "257": "tell",
  "258": "alright",
  "259": "departs",
  "260": "should",
  "261": "course",
  "262": "just",
  "263": "going",
  "264": "cost",
  "265": "fit",
  "266": "problem",
  "267": "search",
  "268": "shall",
  "269": "staying",
  "270": "system",
  "271": "here",
  "272": "ll",
  "273": "first",
  "274": "some",
  "275": "only",
  "276": "pleasure",
  "277": "bye",
  "278": "few",
  "279": "reserve",
  "280": "quite",
  "281": "match",
  "282": "offer",
  "283": "again",
  "284": "starting",
  "285": "serve",
  "286": "colleges",
  "287": "request",
  "288": "admission",
  "289": "days",
  "290": "were",
  "291": "these",
  "292": "calling",
  "293": "thing",
  "294": "preferences",
  "295": "reservations",
  "296": "matching",
  "297": "absolutely",
  "298": "made",
  "299": "pick",
  "300": "now",
  "301": "after",
  "302": "called",
  "303": "got",
  "304": "perhaps",
  "305": "its",
  "306": "either",
  "307": "meets",
  "308": "requirement",
  "309": "give",
  "310": "sound",
  "311": "check",
  "312": "results",
  "313": "info",
  "314": "see",
  "315": "hour",
  "316": "choices",
  "317": "entertainment",
  "318": "park",
  "319": "party",
  "320": "[hospital_address]",
  "321": "completed",
  "322": "take",
  "323": "then",
  "324": "architecture",
  "325": "listed",
  "326": "night",
  "327": "[police_address]",
  "328": "college",
  "329": "#",
  "330": "kind",
  "331": "unsuccessful",
  "332": "services",
  "333": "[hospital_phone]",
  "334": "serving",
  "335": "[hospital_postcode]",
  "336": "[attraction_reference]",
  "337": "every",
  "338": "matches",
  "339": "unable",
  "340": "lovely",
  "341": "seat",
  "342": "might",
  "343": "[police_phone]",
  "344": "id",
  "345": "guest",
  "346": "per",
  "347": "out",
  "348": "[hospital_name]",
  "349": "most",
  "350": "before",
  "351": "shorter",
  "352": "too",
  "353": "fits",
  "354": "house",
  "355": "[police_postcode]",
  "356": "telephone",
  "357": "preferred",
  "358": "right",
  "359": "provide",
  "360": "offers",
  "361": "successfully",
  "362": "site",
  "363": "choice",
  "364": "rated",
  "365": "road",
  "366": "wanting",
  "367": "looks",
  "368": "costs",
  "369": "questions",
  "370": "into",
  "371": "actually",
  "372": "earliest",
  "373": "apologize",
  "374": "change",
  "375": "excellent",
  "376": "back",
  "377": "interest",
  "378": "reach",
  "379": "name",
  "380": "postal",
  "381": "picked",
  "382": "care",
  "383": "long",
  "384": "none",
  "385": "lot",
  "386": "seats",
  "387": "such",
  "388": "best",
  "389": "think",
  "390": "than",
  "391": "suit",
  "392": "nothing",
  "393": "closest",
  "394": "same",
  "395": "dine",
  "396": "police",
  "397": "option",
  "398": "eat",
  "399": "date",
  "400": "over",
  "401": "additional",
  "402": "duration",
  "403": "much",
  "404": "enter",
  "405": "meal",
  "406": "ride",
  "407": "needing",
  "408": "nightclubs",
  "409": "perfect",
  "410": "future",
  "411": "description",
  "412": "confirm",
  "413": "afraid",
  "414": "definitely",
  "415": "hospital",
  "416": "coming",
  "417": "include",
  "418": "street",
  "419": "still",
  "420": "multiple",
  "421": "complete",
  "422": "parks",
  "423": "department",
  "424": "lots",
  "425": "reached",
  "426": "feel",
  "427": "venue",
  "428": "favorite",
  "429": "travelling",
  "430": "finding",
  "431": "showing",
  "432": "ahead",
  "433": "nightclub",
  "434": "acorn",
  "435": "picking",
  "436": "swimming",
  "437": "sports",
  "438": "cherry",
  "439": "confirmation",
  "440": "ca",
  "441": "rooms",
  "442": "hinton",
  "443": "dining",
  "444": "start",
  "445": "boat",
  "446": "instead",
  "447": "hold",
  "448": "entries",
  "449": "specification",
  "450": "maybe",
  "451": "wish",
  "452": "better",
  "453": "end",
  "454": "pay",
  "455": "times",
  "456": "rest",
  "457": "theatre",
  "458": "listings",
  "459": "later",
  "460": "person",
  "461": "show",
  "462": "sounds",
  "463": "recommendation",
  "464": "pools",
  "465": "hesitate",
  "466": "love",
  "467": "[police_name]",
  "468": "done",
  "469": "anytime",
  "470": "popular",
  "471": "things",
  "472": "earlier",
  "473": "meeting",
  "474": "availability",
  "475": "plenty",
  "476": "fun",
  "477": "slot",
  "478": "cinema",
  "479": "others",
  "480": "ref",
  "481": "minute",
  "482": "heading",
  "483": "though",
  "484": "fantastic",
  "485": "guests",
  "486": "pool",
  "487": "however",
  "488": "seems",
  "489": "correct",
  "490": "headed",
  "491": "houses",
  "492": "hear",
  "493": "little",
  "494": "choosing",
  "495": "between",
  "496": "confirmed",
  "497": "way",
  "498": "next",
  "499": "&",
  "500": "evening",
  "501": "last",
  "502": "types",
  "503": "point",
  "504": "oh",
  "505": "each",
  "506": "theatres",
  "507": "fen",
  "508": "needed",
  "509": "everything",
  "510": "fine",
  "511": "bit",
  "512": "route",
  "513": "near",
  "514": "listing",
  "515": "matter",
  "516": "planning",
  "517": "details",
  "518": "[hospital_department]",
  "519": "requested",
  "520": "churches",
  "521": "latest",
  "522": "require",
  "523": "gets",
  "524": "highly",
  "525": "st",
  "526": "entry",
  "527": "inexpensive",
  "528": "ones",
  "529": "held",
  "530": "beginning",
  "531": "chesterton",
  "532": "really",
  "533": "desk",
  "534": "b",
  "535": "letting",
  "536": "indeed",
  "537": "around",
  "538": "fitting",
  "539": "fees",
  "540": "visiting",
  "541": "luck",
  "542": "asian",
  "543": "case",
  "544": "list",
  "545": "pleasant",
  "546": "boating",
  "547": "open",
  "548": "hall",
  "549": "lodge",
  "550": "beautiful",
  "551": "specify",
  "552": "order",
  "553": "while",
  "554": "early",
  "555": "milton",
  "556": "driver",
  "557": "ditton",
  "558": "consider",
  "559": "wanted",
  "560": "length",
  "561": "gonville",
  "562": "getting",
  "563": "allowing",
  "564": "unavailable",
  "565": "close",
  "566": "church",
  "567": "possible",
  "568": "clarify",
  "569": "begin",
  "570": "trainid",
  "571": "met",
  "572": "safe",
  "573": "requests",
  "574": "apologies",
  "575": "news",
  "576": "come",
  "577": "amenities",
  "578": "new",
  "579": "takes",
  "580": "morning",
  "581": "accommodate",
  "582": "dinner",
  "583": "-er",
  "584": "ready",
  "585": "charge",
  "586": "awesome",
  "587": "including",
  "588": "within",
  "589": "run",
  "590": "sort",
  "591": "saint",
  "592": "boats",
  "593": "american",
  "594": "always",
  "595": "passage",
  "596": "concert",
  "597": "lodging",
  "598": "interests",
  "599": "acceptable",
  "600": "art",
  "601": "seem",
  "602": "interesting",
  "603": "pricing",
  "604": "moment",
  "605": "stations",
  "606": "fare",
  "607": "success",
  "608": "confusion",
  "609": "london",
  "610": "week",
  "611": "nt",
  "612": "making",
  "613": "variety",
  "614": "purchase",
  "615": "rather",
  "616": "expecting",
  "617": "error",
  "618": "mentioned",
  "619": "frame",
  "620": "cinemas",
  "621": "accommodations",
  "622": "green",
  "623": "style",
  "624": "had",
  "625": "kings",
  "626": "anymore",
  "627": "far",
  "628": "checking",
  "629": "tables",
  "630": "offering",
  "631": "plan",
  "632": "appears",
  "633": "pound",
  "634": "ranging",
  "635": "schedule",
  "636": "database",
  "637": "leisure",
  "638": "nearest",
  "639": "running",
  "640": "personally",
  "641": "sir",
  "642": "marriott",
  "643": "assisting",
  "644": "until",
  "645": "liverpool",
  "646": "[value_count],[value_count]",
  "647": "aylesbray",
  "648": "say",
  "649": "named",
  "650": "dates",
  "651": "works",
  "652": "through",
  "653": "already",
  "654": "couple",
  "655": "bet",
  "656": "restate",
  "657": "narrows",
  "658": "tr[value_count]",
  "659": "huntington",
  "660": "travels",
  "661": "checked",
  "662": "airport",
  "663": "possibly",
  "664": "numbers",
  "665": "nearby",
  "666": "breakfast",
  "667": "during",
  "668": "bed",
  "669": "alexander",
  "670": "records",
  "671": "pizza",
  "672": "exactly",
  "673": "bridge",
  "674": "went",
  "675": "worked",
  "676": "happen",
  "677": "full",
  "678": "remember",
  "679": "pm",
  "680": "regarding",
  "681": "willing",
  "682": "journey",
  "683": "somewhere",
  "684": "departures",
  "685": "desired",
  "686": "off",
  "687": "trying",
  "688": "reviews",
  "689": "yourself",
  "690": "query",
  "691": "having",
  "692": "amazing",
  "693": "exact",
  "694": "due",
  "695": "seeing",
  "696": "cab",
  "697": "keep",
  "698": "use",
  "699": "gallery",
  "700": "heard",
  "701": "afternoon",
  "702": "specifically",
  "703": "mean",
  "704": "newnham",
  "705": "currently",
  "706": "searching",
  "707": "under",
  "708": "holiday",
  "709": "yeah",
  "710": "being",
  "711": "architectural",
  "712": "king",
  "713": "theater",
  "714": "archaeology",
  "715": "cb[value_count]",
  "716": "pretty",
  "717": "said",
  "718": "club",
  "719": "taking",
  "720": "since",
  "721": "concerthall",
  "722": "etc",
  "723": "thinking",
  "724": "group",
  "725": "paid",
  "726": "goes",
  "727": "without",
  "728": "ha",
  "729": "tr",
  "730": "g",
  "731": "access",
  "732": "cross",
  "733": "grafton",
  "734": "fact",
  "735": "transportation",
  "736": "category",
  "737": "theaters",
  "738": "suitable",
  "739": "business",
  "740": "inn",
  "741": "rosa",
  "742": "high",
  "743": "second",
  "744": "unknown",
  "745": "hourly",
  "746": "comes",
  "747": "shorten",
  "748": "possibilities",
  "749": "must",
  "750": "bookings",
  "751": "included",
  "752": "experience",
  "753": "personal",
  "754": "because",
  "755": "helping",
  "756": "sites",
  "757": "worth",
  "758": "scheduled",
  "759": "austrian",
  "760": "known",
  "761": "northern",
  "762": "believe",
  "763": "inquiring",
  "764": "chose",
  "765": "lodgings",
  "766": "bar",
  "767": "soon",
  "768": "hello",
  "769": "mill",
  "770": "zero",
  "771": "huntingdon",
  "772": "understand",
  "773": "section",
  "774": "trouble",
  "775": "plough",
  "776": "neither",
  "777": "considered",
  "778": "cuisines",
  "779": "throughout",
  "780": "locate",
  "781": "narrowed",
  "782": "express",
  "783": "school",
  "784": "yet",
  "785": "bill",
  "786": "jamaican",
  "787": "vegetarian",
  "788": "ever",
  "789": "recommended",
  "790": "lane",
  "791": "hi",
  "792": "broaden",
  "793": "send",
  "794": "wi",
  "795": "establishment",
  "796": "main",
  "797": "de",
  "798": "newmarket",
  "799": "andrews",
  "800": "amount",
  "801": "lets",
  "802": "double",
  "803": "addresses",
  "804": "helped",
  "805": "almost",
  "806": "based",
  "807": "whether",
  "808": "directions",
  "809": "put",
  "810": "fi",
  "811": "ah",
  "812": "expect",
  "813": "mood",
  "814": "finches",
  "815": "activity",
  "816": "verify",
  "817": "adress",
  "818": "hut",
  "819": "suits",
  "820": "specifics",
  "821": "general",
  "822": "local",
  "823": "parts",
  "824": "even",
  "825": "arbury",
  "826": "anthropology",
  "827": "budget",
  "828": "county",
  "829": "specified",
  "830": "past",
  "831": "confused",
  "832": "why",
  "833": "alpha",
  "834": "tried",
  "835": "hoping",
  "836": "riding",
  "837": "wide",
  "838": "depending",
  "839": "arrange",
  "840": "idea",
  "841": "wo",
  "842": "late",
  "843": "shortly",
  "844": "trips",
  "845": "appear",
  "846": "malaysian",
  "847": "gastropubs",
  "848": "old",
  "849": "unit",
  "850": "cafe",
  "851": "example",
  "852": "approximately",
  "853": "across",
  "854": "directly",
  "855": "company",
  "856": "suggestion",
  "857": "following",
  "858": "lookout",
  "859": "alone",
  "860": "except",
  "861": "gardens",
  "862": "provided",
  "863": "mins",
  "864": "german",
  "865": "accommodation",
  "866": "hobson",
  "867": "provides",
  "868": "persian",
  "869": "swiss",
  "870": "delicious",
  "871": "worries",
  "872": "caribbean",
  "873": "various",
  "874": "causeway",
  "875": "favorites",
  "876": "once",
  "877": "he",
  "878": "belfry",
  "879": "period",
  "880": "history",
  "881": "swedish",
  "882": "danish",
  "883": "selection",
  "884": "spot",
  "885": "expand",
  "886": "greek",
  "887": "fully",
  "888": "fall",
  "889": "galleries",
  "890": "hungarian",
  "891": "christmas",
  "892": "swimmingpool",
  "893": "clubs",
  "894": "appreciate",
  "895": "vere",
  "896": "question",
  "897": "unusual",
  "898": "passengers",
  "899": "direct",
  "900": "sri",
  "901": "result",
  "902": "polish",
  "903": "add",
  "904": "cuban",
  "905": "lankan",
  "906": "russian",
  "907": "terrific",
  "908": "changed",
  "909": "famous",
  "910": "parameters",
  "911": "size",
  "912": "lasts",
  "913": "modern",
  "914": "irish",
  "915": "features",
  "916": "year",
  "917": "centrally",
  "918": "enough",
  "919": "otherwise",
  "920": "establishments",
  "921": "appeal",
  "922": "select",
  "923": "asked",
  "924": "halls",
  "925": "yard",
  "926": "unsure",
  "927": "australian",
  "928": "openings",
  "929": "public",
  "930": "polynesian",
  "931": "kosher",
  "932": "fifteen",
  "933": "cantonese",
  "934": "working",
  "935": "moroccan",
  "936": "dropped",
  "937": "mistake",
  "938": "zip",
  "939": "addenbrookes",
  "940": "eating",
  "941": "completely",
  "942": "important",
  "943": "fancy",
  "944": "suggestions",
  "945": "magdalene",
  "946": "starts",
  "947": "stansted",
  "948": "appealing",
  "949": "answer",
  "950": "decide",
  "951": "special",
  "952": "eastern",
  "953": "venetian",
  "954": "affordable",
  "955": "marriot",
  "956": "perfectly",
  "957": "kingfisher",
  "958": "reserving",
  "959": "science",
  "960": "along",
  "961": "suffice",
  "962": "issue",
  "963": "text",
  "964": "indonesian",
  "965": "folk",
  "966": "queen",
  "967": "process",
  "968": "alternative",
  "969": "stick",
  "970": "vehicle",
  "971": "cancel",
  "972": "central",
  "973": "catalan",
  "974": "talking",
  "975": "pulled",
  "976": "kinds",
  "977": "upscale",
  "978": "downing",
  "979": "gave",
  "980": "probably",
  "981": "optional",
  "982": "swimmingpools",
  "983": "elsewhere",
  "984": "botanic",
  "985": "mention",
  "986": "doing",
  "987": "buy",
  "988": "southern",
  "989": "inform",
  "990": "rd",
  "991": "managed",
  "992": "concerthalls",
  "993": "histon",
  "994": "victoria",
  "995": "charges",
  "996": "scottish",
  "997": "reachable",
  "998": "appointment",
  "999": "yo",
  "1000": "convenient",
  "1001": "birmingham",
  "1002": "trinity",
  "1003": "nando",
  "1004": "meant",
  "1005": "tonight",
  "1006": "dozens",
  "1007": "curry",
  "1008": "computer",
  "1009": "asking",
  "1010": "eastside",
  "1011": "university",
  "1012": "john",
  "1013": "spend",
  "1014": "gives",
  "1015": "downtown",
  "1016": "never",
  "1017": "traditional",
  "1018": "quality",
  "1019": "concern",
  "1020": "country",
  "1021": "bring",
  "1022": "depends",
  "1023": "mine",
  "1024": "corsica",
  "1025": "fusion",
  "1026": "waiting",
  "1027": "inquiry",
  "1028": "tree",
  "1029": "taken",
  "1030": "wait",
  "1031": "owe",
  "1032": "football",
  "1033": "adjust",
  "1034": "land",
  "1035": "respectively",
  "1036": "given",
  "1037": "runs",
  "1038": "relatively",
  "1039": "parade",
  "1040": "activities",
  "1041": "warkworth",
  "1042": "resturant",
  "1043": "congratulations",
  "1044": "y",
  "1045": "touch",
  "1046": "shop",
  "1047": "stated",
  "1048": "t",
  "1049": "sheep",
  "1050": "welsh",
  "1051": "retail",
  "1052": "afghan",
  "1053": "eateries",
  "1054": "issues",
  "1055": "less",
  "1056": "selections",
  "1057": "appeals",
  "1058": "repeat",
  "1059": "vary",
  "1060": "giving",
  "1061": "bus",
  "1062": "considering",
  "1063": "explore",
  "1064": "cool",
  "1065": "liking",
  "1066": "opening",
  "1067": "scandinavian",
  "1068": "hinchinbrook",
  "1069": "english",
  "1070": "wrong",
  "1071": "soul",
  "1072": "dear",
  "1073": "falls",
  "1074": "facility",
  "1075": "thirteen",
  "1076": "saints",
  "1077": "visitors",
  "1078": "belgian",
  "1079": "tuscan",
  "1080": "clear",
  "1081": "enjoyed",
  "1082": "rate",
  "1083": "christ",
  "1084": "head",
  "1085": "pull",
  "1086": "ghandi",
  "1087": "plus",
  "1088": "plans",
  "1089": "bistro",
  "1090": "pulling",
  "1091": "weekend",
  "1092": "particularly",
  "1093": "leaveat",
  "1094": "forgot",
  "1095": "arriveby",
  "1096": "whenever",
  "1097": "punting",
  "1098": "alot",
  "1099": "easy",
  "1100": "names",
  "1101": "chop",
  "1102": "drop",
  "1103": "served",
  "1104": "gueshouses",
  "1105": "latin",
  "1106": "foods",
  "1107": "abbey",
  "1108": "wandlebury",
  "1109": "creative",
  "1110": "cities",
  "1111": "mostly",
  "1112": "fairly",
  "1113": "destinations",
  "1114": "took",
  "1115": "daily",
  "1116": "myself",
  "1117": "least",
  "1118": "pickup",
  "1119": "large",
  "1120": "experiencing",
  "1121": "gladly",
  "1122": "someone",
  "1123": "closer",
  "1124": "crossover",
  "1125": "pleased",
  "1126": "region",
  "1127": "riders",
  "1128": "chosen",
  "1129": "arranged",
  "1130": "row",
  "1131": "tourist",
  "1132": "halal",
  "1133": "mercers",
  "1134": "matched",
  "1135": "resturants",
  "1136": "telling",
  "1137": "noodle",
  "1138": "mary",
  "1139": "unless",
  "1140": "world",
  "1141": "exhibits",
  "1142": "cookhouse",
  "1143": "gpb",
  "1144": "gotten",
  "1145": "simply",
  "1146": "email",
  "1147": "adc",
  "1148": "shows",
  "1149": "contacted",
  "1150": "chiquito",
  "1151": "extra",
  "1152": "helpful",
  "1153": "cineworld",
  "1154": "tour",
  "1155": "c",
  "1156": "top",
  "1157": "current",
  "1158": "uno",
  "1159": "timeframe",
  "1160": "terribly",
  "1161": "attempt",
  "1162": "spots",
  "1163": "qualifications",
  "1164": "tons",
  "1165": "although",
  "1166": "passenger",
  "1167": "came",
  "1168": "recommendations",
  "1169": "are[value_count]star",
  "1170": "message",
  "1171": "customer",
  "1172": "alternate",
  "1173": "hill",
  "1174": "sadly",
  "1175": "lunch",
  "1176": "addition",
  "1177": "scudamores",
  "1178": "frankie",
  "1179": "required",
  "1180": "driving",
  "1181": "westside",
  "1182": "panasian",
  "1183": "final",
  "1184": "constraint",
  "1185": "assume",
  "1186": "basque",
  "1187": "darry",
  "1188": "favourite",
  "1189": "complimentary",
  "1190": "river",
  "1191": "lammas",
  "1192": "wanna",
  "1193": "singaporean",
  "1194": "petersborough",
  "1195": "outside",
  "1196": "movie",
  "1197": "kindly",
  "1198": "addres",
  "1199": "cheapest",
  "1200": "eritrean",
  "1201": "whose",
  "1202": "modify",
  "1203": "romanian",
  "1204": "restraunt",
  "1205": "stazione",
  "1206": "middle",
  "1207": "vue",
  "1208": "antiques",
  "1209": "steakhouse",
  "1210": "categories",
  "1211": "move",
  "1212": "unlisted",
  "1213": "forward",
  "1214": "cheers",
  "1215": "white",
  "1216": "soonest",
  "1217": "int",
  "1218": "johns",
  "1219": "patience",
  "1220": "barbecue",
  "1221": "restaraunt",
  "1222": "carolina",
  "1223": "glitch",
  "1224": "campus",
  "1225": "norfolk",
  "1226": "finish",
  "1227": "wine",
  "1228": "lookup",
  "1229": "jello",
  "1230": "note",
  "1231": "similar",
  "1232": "seeking",
  "1233": "restuarants",
  "1234": "clare",
  "1235": "selected",
  "1236": "luca",
  "1237": "previously",
  "1238": "opinion",
  "1239": "thereafter",
  "1240": "steakhouses",
  "1241": "facilities",
  "1242": "response",
  "1243": "prefered",
  "1244": "zizzi",
  "1245": "operation",
  "1246": "spread",
  "1247": "chesteron",
  "1248": "reaching",
  "1249": "anythign",
  "1250": "create",
  "1251": "single",
  "1252": "despite",
  "1253": "updated",
  "1254": "attending",
  "1255": "who",
  "1256": "avoid",
  "1257": "satisfied",
  "1258": "arrangements",
  "1259": "helps",
  "1260": "gone",
  "1261": "away",
  "1262": "narrowing",
  "1263": "satisfy",
  "1264": "cambrdige",
  "1265": "accomodations",
  "1266": "space",
  "1267": "avenue",
  "1268": "oriental",
  "1269": "via",
  "1270": "sometimes",
  "1271": "tension",
  "1272": "ideas",
  "1273": "clifton",
  "1274": "wow",
  "1275": "fan",
  "1276": "dozen",
  "1277": "deal",
  "1278": "totally",
  "1279": "is[value_count]",
  "1280": "arts",
  "1281": "data",
  "1282": "village",
  "1283": "properties",
  "1284": "pricey",
  "1285": "inquire",
  "1286": "catch",
  "1287": "blue",
  "1288": "a&b",
  "1289": "front",
  "1290": "assisted",
  "1291": "man",
  "1292": "tandoori",
  "1293": "detail",
  "1294": "australasian",
  "1295": "canapes",
  "1296": "numerous",
  "1297": "super",
  "1298": "restuarant",
  "1299": "don",
  "1300": "makes",
  "1301": "mutliple",
  "1302": "varies",
  "1303": "fascinating",
  "1304": "answered",
  "1305": "arcade",
  "1306": "benny",
  "1307": "bishops",
  "1308": "servers",
  "1309": "jesus",
  "1310": "addensbrookes",
  "1311": "hong",
  "1312": "appropriate",
  "1313": "dojo",
  "1314": "su[value_count]",
  "1315": "jubilee",
  "1316": "play",
  "1317": "proceed",
  "1318": "higher",
  "1319": "previous",
  "1320": "varying",
  "1321": "points",
  "1322": "everyone",
  "1323": "market",
  "1324": "real",
  "1325": "wife",
  "1326": "miss",
  "1327": "among",
  "1328": "regretfully",
  "1329": "gastronomy",
  "1330": "molecular",
  "1331": "lovell",
  "1332": "entertainments",
  "1333": "ending",
  "1334": "ring",
  "1335": "churchill",
  "1336": "arrived",
  "1337": "anyone",
  "1338": "worry",
  "1339": "farewell",
  "1340": "hamilton",
  "1341": "critera",
  "1342": "prior",
  "1343": "boasts",
  "1344": "misunderstood",
  "1345": "accident",
  "1346": "books",
  "1347": "o",
  "1348": "ferret",
  "1349": "western",
  "1350": "cambourne",
  "1351": "vacancies",
  "1352": "longer",
  "1353": "joining",
  "1354": "short",
  "1355": "secure",
  "1356": "sport",
  "1357": "fewer",
  "1358": "direction",
  "1359": "partial",
  "1360": "money",
  "1361": "brazilian",
  "1362": "filled",
  "1363": "looked",
  "1364": "trick",
  "1365": "americas",
  "1366": "da",
  "1367": "potential",
  "1368": "g[value_count]",
  "1369": "homerton",
  "1370": "fabulous",
  "1371": "lucky",
  "1372": "according",
  "1373": "light",
  "1374": "kettles",
  "1375": "admittance",
  "1376": "telephone[value_count]",
  "1377": "her",
  "1378": "wise",
  "1379": "offered",
  "1380": "handle",
  "1381": "grande",
  "1382": "technical",
  "1383": "wishes",
  "1384": "fix",
  "1385": "churchhill",
  "1386": "intended",
  "1387": "timeslot",
  "1388": "twenty",
  "1389": "finished",
  "1390": "regent",
  "1391": "andrew",
  "1392": "clarification",
  "1393": "whitehill",
  "1394": "christs",
  "1395": "e",
  "1396": "unique",
  "1397": "concerns",
  "1398": "menu",
  "1399": "exist",
  "1400": "whipple",
  "1401": "terms",
  "1402": "itinerary",
  "1403": "barbeque",
  "1404": "form",
  "1405": "guys",
  "1406": "difference",
  "1407": "state",
  "1408": "norman",
  "1409": "reason",
  "1410": "northend",
  "1411": "astroturf",
  "1412": "hedges",
  "1413": "kidding",
  "1414": "taxis",
  "1415": "hundred",
  "1416": "archeology",
  "1417": "desire",
  "1418": "pasta",
  "1419": "job",
  "1420": "lynn",
  "1421": "fro",
  "1422": "music",
  "1423": "ian",
  "1424": "determine",
  "1425": "nope",
  "1426": "succesful",
  "1427": "closed",
  "1428": "server",
  "1429": "zealand",
  "1430": "mix",
  "1431": "meantime",
  "1432": "accomodate",
  "1433": "yippee",
  "1434": "routes",
  "1435": "attend",
  "1436": "funky",
  "1437": "read",
  "1438": "hmm",
  "1439": "line",
  "1440": "versa",
  "1441": "vice",
  "1442": "fair",
  "1443": "level",
  "1444": "moderatly",
  "1445": "referring",
  "1446": "alrighty",
  "1447": "accept",
  "1448": "property",
  "1449": "turns",
  "1450": "have[value_count]star",
  "1451": "quick",
  "1452": "lensfield",
  "1453": "hang",
  "1454": "left",
  "1455": "burleigh",
  "1456": "hotspot",
  "1457": "low",
  "1458": "min",
  "1459": "learn",
  "1460": "amenity",
  "1461": "events",
  "1462": "providing",
  "1463": "injury",
  "1464": "gray",
  "1465": "mistaken",
  "1466": "inconvenience",
  "1467": "enjoyable",
  "1468": "noon",
  "1469": "postalcode",
  "1470": "kitchen",
  "1471": "specifying",
  "1472": "pumping",
  "1473": "stevanage",
  "1474": "lower",
  "1475": "cutting",
  "1476": "bunch",
  "1477": "hot",
  "1478": "drive",
  "1479": "kinda",
  "1480": "continue",
  "1481": "towns",
  "1482": "opened",
  "1483": "riverside",
  "1484": "barnabas",
  "1485": "renowned",
  "1486": "sundays",
  "1487": "lasting",
  "1488": "technology",
  "1489": "towneinfo",
  "1490": "fond",
  "1491": "wan",
  "1492": "purchased",
  "1493": "restraunts",
  "1494": "grey",
  "1495": "lcoated",
  "1496": "started",
  "1497": "outdoor",
  "1498": "especially",
  "1499": "postcodes",
  "1500": "eatery",
  "1501": "lbs",
  "1502": "preferable",
  "1503": "yellow",
  "1504": "exchange",
  "1505": "lion",
  "1506": "situated",
  "1507": "gorgeous",
  "1508": "shown",
  "1509": "incorrect",
  "1510": "manager",
  "1511": "familiar",
  "1512": "compared",
  "1513": "requesting",
  "1514": "lol",
  "1515": "elegant",
  "1516": "millers",
  "1517": "u",
  "1518": "gooday",
  "1519": "highest",
  "1520": "leverton",
  "1521": "takeaway",
  "1522": "speak",
  "1523": "ther",
  "1524": "contract",
  "1525": "p",
  "1526": "perimeters",
  "1527": "base",
  "1528": "likewise",
  "1529": "view",
  "1530": "friendly",
  "1531": "remainder",
  "1532": "[value_count]gbp",
  "1533": "bad",
  "1534": "aboard",
  "1535": "cheddars",
  "1536": "surrounding",
  "1537": "musuem",
  "1538": "impressive",
  "1539": "cb[value_count]in",
  "1540": "thirty",
  "1541": "tel",
  "1542": "odd",
  "1543": "cabridge",
  "1544": "discussed",
  "1545": "riverboat",
  "1546": "conveniently",
  "1547": "small",
  "1548": "fortunately",
  "1549": "avaialble",
  "1550": "volkswagon",
  "1551": "vinci",
  "1552": "corrected",
  "1553": "vacancy",
  "1554": "event",
  "1555": "classical",
  "1556": "co",
  "1557": "actual",
  "1558": "sleeperz",
  "1559": "understood",
  "1560": "medical",
  "1561": "seen",
  "1562": "adventure",
  "1563": "flexible",
  "1564": "resolve",
  "1565": "diverse",
  "1566": "estate",
  "1567": "chance",
  "1568": "bites",
  "1569": "archway",
  "1570": "follows",
  "1571": "liek",
  "1572": "record",
  "1573": "woudl",
  "1574": "specializing",
  "1575": "depature",
  "1576": "skoda",
  "1577": "th",
  "1578": "ave",
  "1579": "luxury",
  "1580": "valued",
  "1581": "training",
  "1582": "intend",
  "1583": "gueshouse",
  "1584": "immediately",
  "1585": "conversation",
  "1586": "situation",
  "1587": "offerings",
  "1588": "plaza",
  "1589": "fulfill",
  "1590": "toward",
  "1591": "chat",
  "1592": "anniversary",
  "1593": "pasquale",
  "1594": "fixed",
  "1595": "surprisingly",
  "1596": "global",
  "1597": "online",
  "1598": "newest",
  "1599": "satisfactory",
  "1600": "gdp",
  "1601": "exists",
  "1602": "nearly",
  "1603": "towards",
  "1604": "$",
  "1605": "restaurants",
  "1606": "historic",
  "1607": "assigned",
  "1608": "hard",
  "1609": "systems",
  "1610": "difficulty",
  "1611": "feference",
  "1612": "water",
  "1613": "injured",
  "1614": "wished",
  "1615": "thier",
  "1616": "coldhams",
  "1617": "ill",
  "1618": "postcod",
  "1619": "review",
  "1620": "cancelled",
  "1621": "sending",
  "1622": "stunning",
  "1623": "surely",
  "1624": "anyway",
  "1625": "connect",
  "1626": "schools",
  "1627": "sufficient",
  "1628": "pitch",
  "1629": "usually",
  "1630": "crowne",
  "1631": "complex",
  "1632": "office",
  "1633": "colville",
  "1634": "hilton",
  "1635": "travelers",
  "1636": "convenience",
  "1637": "rang",
  "1638": "queens",
  "1639": "hlep",
  "1640": "proper",
  "1641": "miscommunication",
  "1642": "assuming",
  "1643": "transport",
  "1644": "cenre",
  "1645": "approximate",
  "1646": "township",
  "1647": "confirming",
  "1648": "newham",
  "1649": "belfrey",
  "1650": "musuems",
  "1651": "standards",
  "1652": "stained",
  "1653": "glass",
  "1654": "paying",
  "1655": "ashely",
  "1656": "traveller",
  "1657": "unsuccesful",
  "1658": "instructions",
  "1659": "hurt",
  "1660": "attempted",
  "1661": "wants",
  "1662": "traffic",
  "1663": "pulls",
  "1664": "assumed",
  "1665": "eclectic",
  "1666": "occur",
  "1667": "alternatively",
  "1668": "wet",
  "1669": "towne",
  "1670": "classified",
  "1671": "reccomend",
  "1672": "industrial",
  "1673": "child",
  "1674": "mixed",
  "1675": "alter",
  "1676": "ma'am",
  "1677": "mumford",
  "1678": "comfortable",
  "1679": "complexes",
  "1680": "dishes",
  "1681": "pizzeria",
  "1682": "slightly",
  "1683": "prince",
  "1684": "classic",
  "1685": "object",
  "1686": "ant",
  "1687": "domain",
  "1688": "joint",
  "1689": "ford",
  "1690": "el",
  "1691": "walk",
  "1692": "slots",
  "1693": "outstanding",
  "1694": "rates",
  "1695": "addenbrooks",
  "1696": "havea",
  "1697": "nor",
  "1698": "says",
  "1699": "cruisers",
  "1700": "big",
  "1701": "bound",
  "1702": "dale",
  "1703": "necessary",
  "1704": "reasonable",
  "1705": "thousand",
  "1706": "os",
  "1707": "difficulties",
  "1708": "reply",
  "1709": "wheeler",
  "1710": "brewery",
  "1711": "knew",
  "1712": "wallet",
  "1713": "lowest",
  "1714": "allow",
  "1715": "correctly",
  "1716": "nineteen",
  "1717": "entered",
  "1718": "cucina",
  "1719": "regardless",
  "1720": "marvelous",
  "1721": "arranging",
  "1722": "arive",
  "1723": "archaelogy",
  "1724": "board",
  "1725": "exotic",
  "1726": "tours",
  "1727": "fluctuate",
  "1728": "learner",
  "1729": "tasty",
  "1730": "talk",
  "1731": "volvo",
  "1732": "rides",
  "1733": "bell",
  "1734": "christi",
  "1735": "movies",
  "1736": "taste",
  "1737": "spending",
  "1738": "live",
  "1739": "corn",
  "1740": "hungry",
  "1741": "heidelberg",
  "1742": "precise",
  "1743": "thru",
  "1744": "agreeable",
  "1745": "errors",
  "1746": "commuting",
  "1747": "changing",
  "1748": "infomation",
  "1749": "avialable",
  "1750": "ranked",
  "1751": "accomodation",
  "1752": "hundreds",
  "1753": "truly",
  "1754": "dancing",
  "1755": "sense",
  "1756": "connectivity",
  "1757": "yep",
  "1758": "shopping",
  "1759": "saying",
  "1760": "specializes",
  "1761": "operate",
  "1762": "kid",
  "1763": "pardon",
  "1764": "locals",
  "1765": "huh",
  "1766": "hearing",
  "1767": "craving",
  "1768": "zipcode",
  "1769": "delightful",
  "1770": "ambulance",
  "1771": "formal",
  "1772": "aylesbury",
  "1773": "guestrooms",
  "1774": "added",
  "1775": "delay",
  "1776": "clearly",
  "1777": "grafitti",
  "1778": "whitehouse",
  "1779": "tax",
  "1780": "exploring",
  "1781": "felix",
  "1782": "hit",
  "1783": "speaking",
  "1784": "lie",
  "1785": "la",
  "1786": "whole",
  "1787": "forget",
  "1788": "sign",
  "1789": "hey",
  "1790": "atmosphere",
  "1791": "friends",
  "1792": "regards",
  "1793": "searches",
  "1794": "allenball",
  "1795": "misunderstanding",
  "1796": "liked",
  "1797": "[value_count]and",
  "1798": "decision",
  "1799": "means",
  "1800": "meze",
  "1801": "caffee",
  "1802": "cbr",
  "1803": "finally",
  "1804": "positive",
  "1805": "welcomed",
  "1806": "changes",
  "1807": "family",
  "1808": "solid",
  "1809": "blast",
  "1810": "ran",
  "1811": "departments",
  "1812": "standard",
  "1813": "closet",
  "1814": "user",
  "1815": "luxurious",
  "1816": "huts",
  "1817": "thee",
  "1818": "charged",
  "1819": "kirkwood",
  "1820": "upcoming",
  "1821": "stop",
  "1822": "elaborate",
  "1823": "sucessful",
  "1824": "touring",
  "1825": "doubletree",
  "1826": "supply",
  "1827": "supervisor",
  "1828": "limit",
  "1829": "caius",
  "1830": "whale",
  "1831": "emmanuel",
  "1832": "fourteen",
  "1833": "thre",
  "1834": "buisness",
  "1835": "above",
  "1836": "texting",
  "1837": "garden",
  "1838": "hogwarts",
  "1839": "closely",
  "1840": "reccommend",
  "1841": "missing",
  "1842": "cambrige",
  "1843": "stortford",
  "1844": "restaraunts",
  "1845": "darrys",
  "1846": "southend",
  "1847": "belfy",
  "1848": "returned",
  "1849": "arrivals",
  "1850": "twice",
  "1851": "granta",
  "1852": "forty",
  "1853": "dittion",
  "1854": "lines",
  "1855": "tat",
  "1856": "receipt",
  "1857": "accurate",
  "1858": "bishop",
  "1859": "whatever",
  "1860": "wishing",
  "1861": "concerning",
  "1862": "contemporary",
  "1863": "tandoor",
  "1864": "nicely",
  "1865": "relaxing",
  "1866": "tastes",
  "1867": "reccomendation",
  "1868": "gardenia",
  "1869": "array",
  "1870": "misinformation",
  "1871": "ought",
  "1872": "hmmm",
  "1873": "commute",
  "1874": "perform",
  "1875": "mom",
  "1876": "wild",
  "1877": "leiester",
  "1878": "sized",
  "1879": "guestroom",
  "1880": "adventures",
  "1881": "desintation",
  "1882": "mowbray",
  "1883": "yello",
  "1884": "butterfly",
  "1885": "homemade",
  "1886": "gem",
  "1887": "black",
  "1888": "mixup",
  "1889": "anf",
  "1890": "audi",
  "1891": "addenbrooke",
  "1892": "welome",
  "1893": "northside",
  "1894": "locales",
  "1895": "stand",
  "1896": "target",
  "1897": "succesfully",
  "1898": "admissions",
  "1899": "cow",
  "1900": "knows",
  "1901": "schedules",
  "1902": "present",
  "1903": "crime",
  "1904": "bout",
  "1905": "anythin",
  "1906": "nicest",
  "1907": "teh",
  "1908": "anthing",
  "1909": "ahve",
  "1910": "somewhat",
  "1911": "hate",
  "1912": "confusing",
  "1913": "realistic",
  "1914": "path",
  "1915": "busy",
  "1916": "ta",
  "1917": "num",
  "1918": "amd",
  "1919": "georgina",
  "1920": "yur",
  "1921": "guesthomes",
  "1922": "rebook",
  "1923": "abd",
  "1924": "neat",
  "1925": "planned",
  "1926": "demands",
  "1927": "numer",
  "1928": "attributes",
  "1929": "spark",
  "1930": "misspoke",
  "1931": "referenece",
  "1932": "fir",
  "1933": "erania",
  "1934": "michael",
  "1935": "costing",
  "1936": "alyesbray",
  "1937": "unrated",
  "1938": "magnificent",
  "1939": "warn",
  "1940": "lively",
  "1941": "automated",
  "1942": "education",
  "1943": "hurry",
  "1944": "educational",
  "1945": "depend",
  "1946": "cruises",
  "1947": "increase",
  "1948": "tesla",
  "1949": "scandanavian",
  "1950": "religious",
  "1951": "dropping",
  "1952": "contacts",
  "1953": "floor",
  "1954": "swim",
  "1955": "bistros",
  "1956": "notch",
  "1957": "talked",
  "1958": "chef",
  "1959": "created",
  "1960": "peas",
  "1961": "emmauel",
  "1962": "uncertain",
  "1963": "concentrate",
  "1964": "clowns",
  "1965": "botanical",
  "1966": "thousands",
  "1967": "travellers",
  "1968": "click",
  "1969": "mainly",
  "1970": "session",
  "1971": "luckily",
  "1972": "guess",
  "1973": "um",
  "1974": "exciting",
  "1975": "oversight",
  "1976": "decisions",
  "1977": "girton",
  "1978": "avaible",
  "1979": "ton",
  "1980": "problems",
  "1981": "cuts",
  "1982": "minton",
  "1983": "happily",
  "1984": "blessed",
  "1985": "desination",
  "1986": "n",
  "1987": "original",
  "1988": "happens",
  "1989": "unaware",
  "1990": "useful",
  "1991": "umber",
  "1992": "occupancy",
  "1993": "wil",
  "1994": "placed",
  "1995": "mam",
  "1996": "happened",
  "1997": "related",
  "1998": "yup",
  "1999": "cetre",
  "2000": "fell",
  "2001": "theme",
  "2002": "rephrase",
  "2003": "queries",
  "2004": "factor",
  "2005": "oak",
  "2006": "ranger",
  "2007": "ugly",
  "2008": "resaurant",
  "2009": "ducking",
  "2010": "restarants",
  "2011": "ln",
  "2012": "regular",
  "2013": "recomend",
  "2014": "gb",
  "2015": "yummy",
  "2016": "tea",
  "2017": "overlooked",
  "2018": "entree",
  "2019": "aquatic",
  "2020": "posted",
  "2021": "sturton",
  "2022": "discovered",
  "2023": "wrote",
  "2024": "yelp",
  "2025": "mintues",
  "2026": "hincibrook",
  "2027": "bonus",
  "2028": "rep",
  "2029": "refrence",
  "2030": "refine",
  "2031": "strover",
  "2032": "boom",
  "2033": "fulfills",
  "2034": "sad",
  "2035": "consistent",
  "2036": "qualities",
  "2037": "bmw",
  "2038": "[value_count]mins",
  "2039": "grounds",
  "2040": "maharajah",
  "2041": "accommodating",
  "2042": "onwards",
  "2043": "switch",
  "2044": "sat",
  "2045": "recheck",
  "2046": "strikes",
  "2047": "woud",
  "2048": "describe",
  "2049": "hungtington",
  "2050": "noddle",
  "2051": "bankok",
  "2052": "characteristics",
  "2053": "strotford",
  "2054": "anythig",
  "2055": "platform",
  "2056": "load",
  "2057": "locating",
  "2058": "cary",
  "2059": "earlest",
  "2060": "charming",
  "2061": "join",
  "2062": "recently",
  "2063": "caridge",
  "2064": "allen",
  "2065": "thought",
  "2066": "loads",
  "2067": "buses",
  "2068": "clarifying",
  "2069": "involving",
  "2070": "faves",
  "2071": "mere",
  "2072": "cityrooms",
  "2073": "numbe",
  "2074": "fitzwilliam",
  "2075": "likely",
  "2076": "crossed",
  "2077": "hands",
  "2078": "responses",
  "2079": "doubled",
  "2080": "liberty",
  "2081": "acquire",
  "2082": "holy",
  "2083": "fast",
  "2084": "easiest",
  "2085": "living",
  "2086": "catching",
  "2087": "anyhting",
  "2088": "*",
  "2089": "spectacular",
  "2090": "someplace",
  "2091": "figure",
  "2092": "neighborhood",
  "2093": "gald",
  "2094": "pizzaria",
  "2095": "references",
  "2096": "blocks",
  "2097": "rail",
  "2098": "indicate",
  "2099": "suite",
  "2100": "covered",
  "2101": "reconsider",
  "2102": "tabled",
  "2103": "chines",
  "2104": "season",
  "2105": "supposed",
  "2106": "door",
  "2107": "shops",
  "2108": "sooner",
  "2109": "restaurnt",
  "2110": "wtih",
  "2111": "flight",
  "2112": "vw",
  "2113": "oodles",
  "2114": "economically",
  "2115": "toay",
  "2116": "poscode",
  "2117": "machine",
  "2118": "locally",
  "2119": "handful",
  "2120": "solidly",
  "2121": "elated",
  "2122": "searched",
  "2123": "rage",
  "2124": "estimated",
  "2125": "moderatley",
  "2126": "staring",
  "2127": "hosptial",
  "2128": "loated",
  "2129": "drinks",
  "2130": "website",
  "2131": "citiroomz",
  "2132": "puts",
  "2133": "nay",
  "2134": "surprise",
  "2135": "fez",
  "2136": "funk",
  "2137": "funny",
  "2138": "serveal",
  "2139": "building",
  "2140": "ayesbray",
  "2141": "ae",
  "2142": "enjoys",
  "2143": "class",
  "2144": "arms",
  "2145": "restating",
  "2146": "ik",
  "2147": "tran",
  "2148": "putting",
  "2149": "[hospital_reference]",
  "2150": "fills",
  "2151": "requiring",
  "2152": "styles",
  "2153": "thoughts",
  "2154": "pub",
  "2155": "interenet",
  "2156": "advise",
  "2157": "exception",
  "2158": "majority",
  "2159": "gastro",
  "2160": "typo",
  "2161": "sidney",
  "2162": "postode",
  "2163": "coldham",
  "2164": "sussex",
  "2165": "pet",
  "2166": "animals",
  "2167": "begun",
  "2168": "detailed",
  "2169": "non",
  "2170": "nirala",
  "2171": "break",
  "2172": "factors",
  "2173": "hotels",
  "2174": "differnt",
  "2175": "rose",
  "2176": "coffee",
  "2177": "categorized",
  "2178": "often",
  "2179": "boarding",
  "2180": "neuroscience",
  "2181": "tourists",
  "2182": "switched",
  "2183": "lastly",
  "2184": "punter",
  "2185": "inthe",
  "2186": "operating",
  "2187": "share",
  "2188": "roles",
  "2189": "hand",
  "2190": "whereas",
  "2191": "c&c",
  "2192": "spelled",
  "2193": "officer",
  "2194": "stuff",
  "2195": "eighteen",
  "2196": "historical",
  "2197": "clown",
  "2198": "+",
  "2199": "consideration",
  "2200": "sights",
  "2201": "reputation",
  "2202": "exhibition",
  "2203": "arr",
  "2204": "normal",
  "2205": "spare",
  "2206": "knowing",
  "2207": "press",
  "2208": "moving",
  "2209": "birthday",
  "2210": "nighclubs",
  "2211": "behalf",
  "2212": "scudamore",
  "2213": "dispute",
  "2214": "imagine",
  "2215": "southside",
  "2216": "anythng",
  "2217": "model",
  "2218": "toyota",
  "2219": "im",
  "2220": "dilton",
  "2221": "became",
  "2222": "lock",
  "2223": "fyne",
  "2224": "weather",
  "2225": "glitched",
  "2226": "shortening",
  "2227": "destined",
  "2228": "adjusted",
  "2229": "fortunate",
  "2230": "dish",
  "2231": "trumpington",
  "2232": "apparently",
  "2233": "fill",
  "2234": "sytem",
  "2235": "upon",
  "2236": "court",
  "2237": "own",
  "2238": "clients",
  "2239": "impress",
  "2240": "[value_count]st",
  "2241": "til",
  "2242": "vs",
  "2243": "cover",
  "2244": "strictly",
  "2245": "box",
  "2246": "shot",
  "2247": "rebooked",
  "2248": "zizi",
  "2249": "williams",
  "2250": "paring",
  "2251": "cb[value_count]iy",
  "2252": "playing",
  "2253": "quieter",
  "2254": "[value_count]star",
  "2255": "regard",
  "2256": "broughton",
  "2257": "modrate",
  "2258": "regret",
  "2259": "appreciated",
  "2260": "architectures",
  "2261": "fore",
  "2262": "eference",
  "2263": "doubt",
  "2264": "instance",
  "2265": "connection",
  "2266": "missed",
  "2267": "math",
  "2268": "phon",
  "2269": "quickly",
  "2270": "assit",
  "2271": "his",
  "2272": "brassiere",
  "2273": "classy",
  "2274": "opitions",
  "2275": "buildings",
  "2276": "driven",
  "2277": "diners",
  "2278": "overall",
  "2279": "intersted",
  "2280": "michaelhouse",
  "2281": "she",
  "2282": "varsity",
  "2283": "centere",
  "2284": "sorts",
  "2285": "bon",
  "2286": "tech",
  "2287": "decided",
  "2288": "leicaster",
  "2289": "divided",
  "2290": "papadoux",
  "2291": "righty",
  "2292": "plants",
  "2293": "successfull",
  "2294": "half",
  "2295": "number[value_count]",
  "2296": "bennys",
  "2297": "closes",
  "2298": "stating",
  "2299": "ways",
  "2300": "jinling",
  "2301": "heavily",
  "2302": "your're",
  "2303": "eats",
  "2304": "yopu",
  "2305": "weds",
  "2306": "whichever",
  "2307": "reduce",
  "2308": "retain",
  "2309": "rave",
  "2310": "locale",
  "2311": "parace",
  "2312": "moon",
  "2313": "remind",
  "2314": "statement",
  "2315": "return",
  "2316": "gift",
  "2317": "pinto",
  "2318": "addmission",
  "2319": "entire",
  "2320": "learning",
  "2321": "ya",
  "2322": "sue",
  "2323": "amended",
  "2324": "cusine",
  "2325": "multi",
  "2326": "in[value_count]",
  "2327": "ce[value_count]de",
  "2328": "hinto",
  "2329": "chery",
  "2330": "enjouy",
  "2331": "bookid",
  "2332": "fifth",
  "2333": "conscious",
  "2334": "wich",
  "2335": "idian",
  "2336": "dialing",
  "2337": "brasseri",
  "2338": "covers",
  "2339": "tipin",
  "2340": "b[value_count]bs",
  "2341": "sporting",
  "2342": "seasame",
  "2343": "yt[value_count]cf[value_count]",
  "2344": "preferance",
  "2345": "planing",
  "2346": "cute",
  "2347": "m[value_count]zh[value_count]",
  "2348": "backup",
  "2349": "separate",
  "2350": "shanghi",
  "2351": "definately",
  "2352": "slow",
  "2353": "cv[value_count]ln",
  "2354": "shabby",
  "2355": "resaurants",
  "2356": "kihinoor",
  "2357": "meghana",
  "2358": "nashua",
  "2359": "alternatives",
  "2360": "isah[value_count]",
  "2361": "fellow",
  "2362": "stratford",
  "2363": "amenites",
  "2364": "human",
  "2365": "jamacian",
  "2366": "origination",
  "2367": "starred",
  "2368": "mistook",
  "2369": "sever",
  "2370": "cb[value_count]qp",
  "2371": "hat",
  "2372": "limhouse",
  "2373": "devere",
  "2374": "astroturk",
  "2375": "tiger",
  "2376": "sefvwprb",
  "2377": "dbye",
  "2378": "lexus",
  "2379": "mturk",
  "2380": "pumped",
  "2381": "hestitate",
  "2382": "hutington",
  "2383": "acron",
  "2384": "sfgds",
  "2385": "advance",
  "2386": "spaces",
  "2387": "satiate",
  "2388": "relation",
  "2389": "therebany",
  "2390": "awaiting",
  "2391": "identical",
  "2392": "notify",
  "2393": "brochures",
  "2394": "thorton",
  "2395": "found[value_count]star",
  "2396": "rs[value_count]",
  "2397": "peek",
  "2398": "hev",
  "2399": "whould",
  "2400": "culture",
  "2401": "whoa",
  "2402": "huntingon",
  "2403": "graffton",
  "2404": "traindid",
  "2405": "hunting",
  "2406": "woq[value_count]j[value_count]g",
  "2407": "atheist",
  "2408": "ale",
  "2409": "colour",
  "2410": "furthering",
  "2411": "ferrets",
  "2412": "seeuniversity",
  "2413": "collect",
  "2414": "marked",
  "2415": "addebrookes",
  "2416": "life",
  "2417": "word",
  "2418": "iam",
  "2419": "laid",
  "2420": "mathcing",
  "2421": "successfuly",
  "2422": "assorted",
  "2423": "told",
  "2424": "restruarant",
  "2425": "exhibit",
  "2426": "differrent",
  "2427": "aspect",
  "2428": "loves",
  "2429": "rspectively",
  "2430": "turk",
  "2431": "specialty",
  "2432": "cb[value_count]b",
  "2433": "falling",
  "2434": "together",
  "2435": "volkwagen",
  "2436": "traintr[value_count]",
  "2437": "hmmmm",
  "2438": "wankworth",
  "2439": "hankering",
  "2440": "desires",
  "2441": "aligns",
  "2442": "[value_count]q[value_count]telmh",
  "2443": "india",
  "2444": "moderan",
  "2445": "items",
  "2446": "bryard",
  "2447": "gydir",
  "2448": "encourage",
  "2449": "greetings",
  "2450": "mouth",
  "2451": "rederence",
  "2452": "comparatively",
  "2453": "invitation",
  "2454": "qm",
  "2455": "delete",
  "2456": "rmibuhde",
  "2457": "hinston",
  "2458": "hostel",
  "2459": "fantabulous",
  "2460": "wednedsday",
  "2461": "advised",
  "2462": "allowed",
  "2463": "convention",
  "2464": "shadda",
  "2465": "psychics",
  "2466": "rude",
  "2467": "annual",
  "2468": "brand",
  "2469": "loike",
  "2470": "statizione",
  "2471": "guestshouses",
  "2472": "andto",
  "2473": "neighbourhood",
  "2474": "adult",
  "2475": "frday",
  "2476": "honored",
  "2477": "ideally",
  "2478": "[value_count]l[value_count]",
  "2479": "potentially",
  "2480": "ofor",
  "2481": "sublime",
  "2482": "te",
  "2483": "tarting",
  "2484": "suggested",
  "2485": "wh[value_count]dhng",
  "2486": "tra",
  "2487": "infocenter",
  "2488": "cb[value_count]id",
  "2489": "classification",
  "2490": "don'y",
  "2491": "a[value_count]h[value_count]efpt",
  "2492": "fyi",
  "2493": "abundant",
  "2494": "contemporaneity",
  "2495": "panasain",
  "2496": "cocom",
  "2497": "article",
  "2498": "wandlebry",
  "2499": "woah",
  "2500": "setting",
  "2501": "i'am",
  "2502": "archaology",
  "2503": "disconnected",
  "2504": "portraits",
  "2505": "duxford",
  "2506": "preferring",
  "2507": "gue",
  "2508": "usding",
  "2509": "cherap",
  "2510": "restrictions",
  "2511": "kettle",
  "2512": "value",
  "2513": "yipppee",
  "2514": "misunderstand",
  "2515": "figuring",
  "2516": "sorted",
  "2517": "commodities",
  "2518": "restsurant",
  "2519": "copper",
  "2520": "cd[value_count]da",
  "2521": "mondays",
  "2522": "boko",
  "2523": "w",
  "2524": "fount",
  "2525": "isd",
  "2526": "cafedon",
  "2527": "have[value_count]stars",
  "2528": "hamiliton",
  "2529": "cd[value_count]af",
  "2530": "followed",
  "2531": "versus",
  "2532": "suy[value_count]vw",
  "2533": "are[value_count]are",
  "2534": "catharine",
  "2535": "quayside",
  "2536": "seating",
  "2537": "alligator",
  "2538": "appropriately",
  "2539": "cb[value_count]ab",
  "2540": "forth",
  "2541": "intrigue",
  "2542": "reinb[value_count]ero",
  "2543": "boderate",
  "2544": "magdelene",
  "2545": "loch",
  "2546": "certainty",
  "2547": "cheddar",
  "2548": "gdfg",
  "2549": "[value_count]tu[value_count]prqv",
  "2550": "ahley",
  "2551": "destionation",
  "2552": "yor",
  "2553": "hop",
  "2554": "norht",
  "2555": "attracts",
  "2556": "larger",
  "2557": "t[value_count]yc[value_count]fuq",
  "2558": "marriotte",
  "2559": "inmind",
  "2560": "jedburh",
  "2561": "collages",
  "2562": "rad",
  "2563": "meseums",
  "2564": "authentic",
  "2565": "chicken",
  "2566": "tikka",
  "2567": "broxborne",
  "2568": "barbakan",
  "2569": "ttc[value_count]x[value_count]up",
  "2570": "abs",
  "2571": "accepted",
  "2572": "aware",
  "2573": "ceneworld",
  "2574": "rechecked",
  "2575": "addesbrookes",
  "2576": "dsf",
  "2577": "guesthousein",
  "2578": "suitcases",
  "2579": "itailian",
  "2580": "gba",
  "2581": "guesthous",
  "2582": "fg",
  "2583": "gdsgfsd",
  "2584": "positively",
  "2585": "huges",
  "2586": "edward",
  "2587": "zoos",
  "2588": "tepin",
  "2589": "boredom",
  "2590": "epxensive",
  "2591": "relieve",
  "2592": "mouthful",
  "2593": "hedged",
  "2594": "masala",
  "2595": "restaurnat",
  "2596": "goto",
  "2597": "guide",
  "2598": "triip",
  "2599": "morrocan",
  "2600": "belongings",
  "2601": "pricepoint",
  "2602": "finishing",
  "2603": "attention",
  "2604": "aide",
  "2605": "suddenly",
  "2606": "displaying",
  "2607": "pressed",
  "2608": "reasons",
  "2609": "ade",
  "2610": "denied",
  "2611": "nedeed",
  "2612": "vast",
  "2613": "companion",
  "2614": "friend",
  "2615": "stoney",
  "2616": "accidentally",
  "2617": "try[value_count]",
  "2618": "wandlbury",
  "2619": "assumptions",
  "2620": "sis",
  "2621": "scented",
  "2622": "entrace",
  "2623": "feis",
  "2624": "glorious",
  "2625": "uniquely",
  "2626": "decorated",
  "2627": "conflicting",
  "2628": "setup",
  "2629": "bateman",
  "2630": "##",
  "2631": "commendations",
  "2632": "sharing",
  "2633": "ans",
  "2634": "eauropean",
  "2635": "flowers",
  "2636": "reestraunt",
  "2637": "noticed",
  "2638": "walking",
  "2639": "burger",
  "2640": "began",
  "2641": "requester",
  "2642": "words",
  "2643": "dreamed",
  "2644": "garner",
  "2645": "contac",
  "2646": "taxithat",
  "2647": "ap",
  "2648": "inquest",
  "2649": "lad",
  "2650": "psot",
  "2651": "c[value_count]c[value_count]",
  "2652": "reversed",
  "2653": "differen't",
  "2654": "piece",
  "2655": "nome",
  "2656": "concerts",
  "2657": "stree",
  "2658": "amny",
  "2659": "covering",
  "2660": "port",
  "2661": "everywhere",
  "2662": "ad",
  "2663": "e[value_count]erfbkg",
  "2664": "bloomsberry",
  "2665": "hungtingdon",
  "2666": "levels",
  "2667": "appetit",
  "2668": "feeling",
  "2669": "[value_count]stars",
  "2670": "tyoe",
  "2671": "avaibale",
  "2672": "modifiy",
  "2673": "muslim",
  "2674": "callback",
  "2675": "availibility",
  "2676": "mariott",
  "2677": "artchway",
  "2678": "typo'd",
  "2679": "apartment",
  "2680": "sentence",
  "2681": "motel",
  "2682": "cb[value_count]bl",
  "2683": "pubicaly",
  "2684": "aycp[value_count]a",
  "2685": "randomly",
  "2686": "[value_count]g[value_count]j",
  "2687": "everday",
  "2688": "correction",
  "2689": "cb[value_count]njand",
  "2690": "inmarket",
  "2691": "roseford",
  "2692": "communication",
  "2693": "cb[value_count]nw[value_count]",
  "2694": "steer",
  "2695": "x[value_count]gnq[value_count]",
  "2696": "yo+u",
  "2697": "rainid",
  "2698": "boxbourne",
  "2699": "labanese",
  "2700": "cb[value_count]ht",
  "2701": "critical",
  "2702": "cb[value_count]al",
  "2703": "roughly",
  "2704": "suites",
  "2705": "centry",
  "2706": "postcodein",
  "2707": "answers",
  "2708": "everton",
  "2709": "numbeer",
  "2710": "disregard",
  "2711": "efe",
  "2712": "yoir",
  "2713": "birminghan",
  "2714": "ranged",
  "2715": "secular",
  "2716": "nominal",
  "2717": "chersterton",
  "2718": "ritzy",
  "2719": "lqu[value_count]hdto",
  "2720": "district",
  "2721": "aim",
  "2722": "tonne",
  "2723": "numner",
  "2724": "adults",
  "2725": "punds",
  "2726": "elses",
  "2727": "investigate",
  "2728": "yield",
  "2729": "incorrectly",
  "2730": "andenjoy",
  "2731": "flavor",
  "2732": "buck",
  "2733": "roverside",
  "2734": "scary",
  "2735": "[value_count]g[value_count]f",
  "2736": "avolon",
  "2737": "feet",
  "2738": "bellfry",
  "2739": "expresses",
  "2740": "[value_count]i",
  "2741": "artifacts",
  "2742": "collection",
  "2743": "uk",
  "2744": "home",
  "2745": "social",
  "2746": "oldest",
  "2747": "escaping",
  "2748": "agent",
  "2749": "eooagzcf",
  "2750": "intensive",
  "2751": "attratction",
  "2752": "poolway",
  "2753": "[value_count]slqnhxa",
  "2754": "recall",
  "2755": "expensiveno",
  "2756": "mentioning",
  "2757": "selecting",
  "2758": "welconme",
  "2759": "cd[value_count]sr",
  "2760": "restauarants",
  "2761": "cops",
  "2762": "loaction",
  "2763": "hometown",
  "2764": "easily",
  "2765": "j[value_count]wc[value_count]",
  "2766": "buffs",
  "2767": "prferences",
  "2768": "remodeling",
  "2769": "underwent",
  "2770": "guesthuse",
  "2771": "rolls",
  "2772": "egg",
  "2773": "[value_count]wm[value_count]sewy",
  "2774": "cb[value_count]eg",
  "2775": "[value_count]ld",
  "2776": "sculpture",
  "2777": "h[value_count]mb[value_count]wz",
  "2778": "actualy",
  "2779": "fed",
  "2780": "siagon",
  "2781": "redundant",
  "2782": "architechture",
  "2783": "junction",
  "2784": "starters",
  "2785": "franky",
  "2786": "sly",
  "2787": "legnth",
  "2788": "itself",
  "2789": "sweet",
  "2790": "multitude",
  "2791": "isv[value_count]",
  "2792": "postocode",
  "2793": "fitbillies",
  "2794": "tie",
  "2795": "hotelexpensive",
  "2796": "huge",
  "2797": "slight",
  "2798": "filtered",
  "2799": "crusiers",
  "2800": "deals",
  "2801": "amigo",
  "2802": "adios",
  "2803": "wehave",
  "2804": "plane",
  "2805": "iwas",
  "2806": "passcode",
  "2807": "unfortuntately",
  "2808": "parkign",
  "2809": "howe",
  "2810": "padgs[value_count]",
  "2811": "pnone",
  "2812": "arcon",
  "2813": "chophouse",
  "2814": "westies",
  "2815": "seve",
  "2816": "corss",
  "2817": "heads",
  "2818": "crossing",
  "2819": "gynecology",
  "2820": "barn",
  "2821": "sushi",
  "2822": "a[value_count]ij[value_count]q",
  "2823": "norfold",
  "2824": "sore",
  "2825": "absent",
  "2826": "resolved",
  "2827": "ticketsis",
  "2828": "whata",
  "2829": "apologise",
  "2830": "manny",
  "2831": "tsounds",
  "2832": "irde",
  "2833": "~",
  "2834": "poinds",
  "2835": "postbcode",
  "2836": "penny",
  "2837": "ttr[value_count]",
  "2838": "inquiries",
  "2839": "thus",
  "2840": "prompt",
  "2841": "informatoin",
  "2842": "lose",
  "2843": "obviously",
  "2844": "trian",
  "2845": "sources",
  "2846": "focuses",
  "2847": "wa[value_count]s[value_count]",
  "2848": "cod",
  "2849": "sleeper",
  "2850": "b[value_count]kvhn",
  "2851": "suppose",
  "2852": "acting",
  "2853": "``",
  "2854": "othe",
  "2855": "pitc",
  "2856": "nxw[value_count]xx[value_count]",
  "2857": "greens",
  "2858": "acorns",
  "2859": "antolia",
  "2860": "cottages",
  "2861": "shuttle",
  "2862": "budge",
  "2863": "selling",
  "2864": "eloquent",
  "2865": "greatly",
  "2866": "polite",
  "2867": "viking",
  "2868": "tray",
  "2869": "bank",
  "2870": "guesthose",
  "2871": "breaking",
  "2872": "fiday",
  "2873": "received",
  "2874": "gwdir",
  "2875": "alpah",
  "2876": "warm",
  "2877": "sections",
  "2878": "obtain",
  "2879": "visits",
  "2880": "napier",
  "2881": "arrving",
  "2882": "intriguing",
  "2883": "anyting",
  "2884": "dad",
  "2885": "cb[value_count]pb",
  "2886": "windows",
  "2887": "pizzria",
  "2888": "terminal",
  "2889": "brasserie",
  "2890": "bang",
  "2891": "pfyqxylu",
  "2892": "breakfastritish",
  "2893": "gardina",
  "2894": "spcific",
  "2895": "ywa",
  "2896": "ventures",
  "2897": "afterwards",
  "2898": "implied",
  "2899": "ould",
  "2900": "presuming",
  "2901": "sportier",
  "2902": "ceratin",
  "2903": "ariving",
  "2904": "availabiltiy",
  "2905": "xxa[value_count]vm[value_count]f",
  "2906": "ic",
  "2907": "leaning",
  "2908": "alywas",
  "2909": "satisfactorily",
  "2910": "softplace",
  "2911": "sincerest",
  "2912": "[value_count]pm",
  "2913": "heding",
  "2914": "cbh[value_count]lh",
  "2915": "cb[value_count]nl",
  "2916": "modest",
  "2917": "buddha",
  "2918": "vegan",
  "2919": "gastropubed",
  "2920": "used",
  "2921": "swimmin",
  "2922": "informatin",
  "2923": "pop",
  "2924": "inexpensively",
  "2925": "c[value_count]vmmp[value_count]",
  "2926": "totaling",
  "2927": "excited",
  "2928": "leavees",
  "2929": "stevenbridge",
  "2930": "staff",
  "2931": "fool",
  "2932": "recommendvlittle",
  "2933": "attitude",
  "2934": "arise",
  "2935": "exclusively",
  "2936": "parties",
  "2937": "antying",
  "2938": "dealbreaker",
  "2939": "gbo",
  "2940": "esle",
  "2941": "credit",
  "2942": "lack",
  "2943": "h[value_count]j[value_count]yfx",
  "2944": "xpcari[value_count]",
  "2945": "destiantion",
  "2946": "[value_count]x[value_count]eow[value_count]a",
  "2947": "card",
  "2948": "mores",
  "2949": "tasks",
  "2950": "younger",
  "2951": "arrvies",
  "2952": "yys[value_count]sw[value_count]",
  "2953": "holler",
  "2954": "superb",
  "2955": "button",
  "2956": "wzzmbzq[value_count]",
  "2957": "acommodate",
  "2958": "criterion",
  "2959": "leichester",
  "2960": "leaner",
  "2961": "abou",
  "2962": "fave",
  "2963": "nil",
  "2964": "aside",
  "2965": "hell",
  "2966": "targeting",
  "2967": "costly",
  "2968": "lenfield",
  "2969": "sock",
  "2970": "meghina",
  "2971": "availbable",
  "2972": "earned",
  "2973": "restaruant",
  "2974": "expanding",
  "2975": "field",
  "2976": "phobias",
  "2977": "nz[value_count]k[value_count]x",
  "2978": "workers",
  "2979": "corsican",
  "2980": "wen",
  "2981": "restraint",
  "2982": "cb",
  "2983": "[value_count]dw",
  "2984": "codeyi[value_count]wguqa",
  "2985": "breakfeast",
  "2986": "winning",
  "2987": "lottery",
  "2988": "pricewise",
  "2989": "adderss",
  "2990": "phoen",
  "2991": "n[value_count]h[value_count]k[value_count]",
  "2992": "fist",
  "2993": "backwards",
  "2994": "sent",
  "2995": "isd[value_count]v[value_count]u[value_count]ma",
  "2996": "necessity",
  "2997": "withe",
  "2998": "currnently",
  "2999": "conformation",
  "3000": "pohlz[value_count]ey",
  "3001": "beyond",
  "3002": "ay",
  "3003": "hitch",
  "3004": "grand",
  "3005": "riche",
  "3006": "cambidge",
  "3007": "hbb[value_count]hcgf",
  "3008": "woth",
  "3009": "inqure",
  "3010": "tenpen",
  "3011": "grab",
  "3012": "traveled",
  "3013": "regarded",
  "3014": "[value_count]kx[value_count]mctxxx",
  "3015": "olive",
  "3016": "amc",
  "3017": "bookin",
  "3018": "gremlin",
  "3019": "[value_count]j[value_count]vv[value_count]",
  "3020": "voyage",
  "3021": "adn",
  "3022": "jordans",
  "3023": "fulfilling",
  "3024": "catalanan",
  "3025": "misdummer",
  "3026": "admitted",
  "3027": "pembroke",
  "3028": "cn",
  "3029": "scott",
  "3030": "polar",
  "3031": "eaves",
  "3032": "dialogue",
  "3033": "shoul",
  "3034": "tomorrow",
  "3035": "conversing",
  "3036": "ample",
  "3037": "tablet",
  "3038": "memorable",
  "3039": "peterbourough",
  "3040": "ype",
  "3041": "c[value_count]jx",
  "3042": "lang",
  "3043": "foe",
  "3044": "repferences",
  "3045": "basic",
  "3046": "questhouse",
  "3047": "o[value_count]",
  "3048": "madalene",
  "3049": "write",
  "3050": "possibility",
  "3051": "labeled",
  "3052": "gee",
  "3053": "treet",
  "3054": "arrove",
  "3055": "assign",
  "3056": "splendid",
  "3057": "condition",
  "3058": "excursions",
  "3059": "gfor",
  "3060": "nicer",
  "3061": "asain",
  "3062": "avaliable",
  "3063": "prtuguese",
  "3064": "indoor",
  "3065": "signey",
  "3066": "notable",
  "3067": "yuor",
  "3068": "map",
  "3069": "dour",
  "3070": "allenbelle",
  "3071": "alaways",
  "3072": "cb[value_count]u",
  "3073": "picky",
  "3074": "v[value_count]",
  "3075": "calls",
  "3076": "salon",
  "3077": "comprehensive",
  "3078": "peaceful",
  "3079": "month",
  "3080": "capable",
  "3081": "fot",
  "3082": "eh",
  "3083": "tele",
  "3084": "postcoe",
  "3085": "pried",
  "3086": "x[value_count]yxz[value_count]p",
  "3087": "applied",
  "3088": "chatting",
  "3089": "illuminated",
  "3090": "manuscripts",
  "3091": "essentials",
  "3092": "anytihng",
  "3093": "informative",
  "3094": "saturdays",
  "3095": "paintings",
  "3096": "tempin",
  "3097": "conjure",
  "3098": "signals",
  "3099": "stores",
  "3100": "cam",
  "3101": "themed",
  "3102": "amenitites",
  "3103": "co[value_count]thpm[value_count]",
  "3104": "ditto",
  "3105": "possibles",
  "3106": "stayed",
  "3107": "segment",
  "3108": "renown",
  "3109": "tues",
  "3110": "postcide",
  "3111": "ma",
  "3112": "clubbing",
  "3113": "gnp",
  "3114": "report",
  "3115": "phones",
  "3116": "chruch",
  "3117": "tll",
  "3118": "arrt",
  "3119": "trianid",
  "3120": "carefully",
  "3121": "artworks",
  "3122": "parsk",
  "3123": "directory",
  "3124": "cincema",
  "3125": "restauranr",
  "3126": "chersteron",
  "3127": "numbr",
  "3128": "serious",
  "3129": "festive",
  "3130": "feast",
  "3131": "kingslynn",
  "3132": "postcodecb[value_count]rs",
  "3133": "hiding",
  "3134": "transfer",
  "3135": "broad",
  "3136": "context",
  "3137": "europe",
  "3138": "squared",
  "3139": "ye[value_count]vavo",
  "3140": "corkhouse",
  "3141": "ensure",
  "3142": "restrant",
  "3143": "nnumber",
  "3144": "ayelsbray",
  "3145": "bu",
  "3146": "greeting",
  "3147": "wii",
  "3148": "fii",
  "3149": "bothered",
  "3150": "edwards",
  "3151": "interaction",
  "3152": "caught",
  "3153": "punch",
  "3154": "sensitive",
  "3155": "varisty",
  "3156": "sanit",
  "3157": "[value_count]shall",
  "3158": "is[value_count]bqt[value_count]t[value_count]m",
  "3159": "y[value_count]atc[value_count]sj",
  "3160": "plugh",
  "3161": "caafe",
  "3162": "arival",
  "3163": "comparable",
  "3164": "backk",
  "3165": "istr[value_count]",
  "3166": "perchance",
  "3167": "napping",
  "3168": "rnge",
  "3169": "ar",
  "3170": "bmv",
  "3171": "hiking",
  "3172": "cenrtree",
  "3173": "citycentre",
  "3174": "sea",
  "3175": "goos",
  "3176": "ius",
  "3177": "cv[value_count]",
  "3178": "extended",
  "3179": "amongst",
  "3180": "[value_count]hrs",
  "3181": "[value_count]dnpblis",
  "3182": "rcommed",
  "3183": "aprezzo",
  "3184": "architecturally",
  "3185": "[value_count]leaves",
  "3186": "wtceqw",
  "3187": "michae",
  "3188": "edgy",
  "3189": "increments",
  "3190": "hace",
  "3191": "affiliations",
  "3192": "groupon",
  "3193": "reasurant",
  "3194": "scadamores",
  "3195": "mil",
  "3196": "cb[value_count]nt",
  "3197": "snappiness",
  "3198": "k[value_count]ioq[value_count]z",
  "3199": "abotu",
  "3200": "reported",
  "3201": "bumber",
  "3202": "postcoade",
  "3203": "environment",
  "3204": "[value_count]l[value_count]rt",
  "3205": "admissoin",
  "3206": "beg",
  "3207": "fifty",
  "3208": "nofolk",
  "3209": "conditions",
  "3210": "persons",
  "3211": "par",
  "3212": "referenced",
  "3213": "recommending",
  "3214": "mother",
  "3215": "exquisite",
  "3216": "rood",
  "3217": "afford",
  "3218": "buffet",
  "3219": "physical",
  "3220": "prise",
  "3221": "ow",
  "3222": "ashbury",
  "3223": "wiil",
  "3224": "below",
  "3225": "suited",
  "3226": "perne",
  "3227": "awarded",
  "3228": "sesame",
  "3229": "alexdander",
  "3230": "hotal",
  "3231": "mt",
  "3232": "determined",
  "3233": "bb[value_count]ctao",
  "3234": "fat",
  "3235": "classed",
  "3236": "tells",
  "3237": "letters",
  "3238": "bold",
  "3239": "ipo[value_count]y[value_count]",
  "3240": "apha",
  "3241": "zl[value_count]u[value_count]q[value_count]q",
  "3242": "incredible",
  "3243": "films",
  "3244": "cb[value_count]s",
  "3245": "internent",
  "3246": "centra",
  "3247": "exhange",
  "3248": "todoay",
  "3249": "whoops",
  "3250": "buggy",
  "3251": "`",
  "3252": "almentum",
  "3253": "wht",
  "3254": "corpus",
  "3255": "cristi",
  "3256": "asbury",
  "3257": "credentials",
  "3258": "entertainent",
  "3259": "blond",
  "3260": "iscwx[value_count]enl",
  "3261": "cb[value_count]ad",
  "3262": "ratinge",
  "3263": "htels",
  "3264": "oter",
  "3265": "phone[value_count]",
  "3266": "thuz[value_count]rm",
  "3267": "laeves",
  "3268": "cbq[value_count]",
  "3269": "clean",
  "3270": "clumsy",
  "3271": "wirh",
  "3272": "iscb[value_count]jj",
  "3273": "cicina",
  "3274": "disclose",
  "3275": "ideal",
  "3276": "moderatre",
  "3277": "cb[value_count]ef",
  "3278": "anythine",
  "3279": "boasting",
  "3280": "[value_count]r[value_count]gwvj",
  "3281": "salsa",
  "3282": "musem",
  "3283": "acclaimed",
  "3284": "ot",
  "3285": "colleague",
  "3286": "typical",
  "3287": "brighten",
  "3288": "robbery",
  "3289": "monopoly",
  "3290": "larriott",
  "3291": "auumn",
  "3292": "tow",
  "3293": "evenening",
  "3294": "empty",
  "3295": "yugo",
  "3296": "strike",
  "3297": "comboats",
  "3298": "disappoint",
  "3299": "cups",
  "3300": "gallary",
  "3301": "hundington",
  "3302": "brah",
  "3303": "lxmfrzlr",
  "3304": "newcomers",
  "3305": "poppin",
  "3306": "allows",
  "3307": "conduct",
  "3308": "cb[value_count]e",
  "3309": "cb[value_count]ih",
  "3310": "coldharms",
  "3311": "goonville",
  "3312": "discounted",
  "3313": "palance",
  "3314": "wadlebury",
  "3315": "tasce",
  "3316": "sysyem",
  "3317": "restarauant",
  "3318": "kh[value_count]fzbe",
  "3319": "connecting",
  "3320": "galley",
  "3321": "si",
  "3322": "nborth",
  "3323": "patch",
  "3324": "optionsd",
  "3325": "the[value_count]of",
  "3326": "attaction",
  "3327": "occured",
  "3328": "sensational",
  "3329": "acom",
  "3330": "[value_count]ra[value_count]y[value_count]gs",
  "3331": "poast",
  "3332": "maghna",
  "3333": "cb[value_count]hlm",
  "3334": "sup",
  "3335": "ourselves",
  "3336": "lt",
  "3337": "prominent",
  "3338": "odge",
  "3339": "cb[value_count]da",
  "3340": "q",
  "3341": "sory",
  "3342": "teel",
  "3343": "addenrookes",
  "3344": "ayles",
  "3345": "bray",
  "3346": "alert",
  "3347": "guestgouse",
  "3348": "freeway",
  "3349": "dutton",
  "3350": "september",
  "3351": "malls",
  "3352": "a[value_count]t[value_count]ejz",
  "3353": "americans",
  "3354": "ablt",
  "3355": "golden",
  "3356": "filter",
  "3357": "sketchy",
  "3358": "secondary",
  "3359": "zone",
  "3360": "gon",
  "3361": "na",
  "3362": "kept",
  "3363": "secrets",
  "3364": "nature",
  "3365": "crescent",
  "3366": "resulting",
  "3367": "locates",
  "3368": "engine",
  "3369": "inquired",
  "3370": "goedbye",
  "3371": "allright",
  "3372": "z[value_count]dim[value_count]ym",
  "3373": "impossible",
  "3374": "alphabetically",
  "3375": "postcodee",
  "3376": "celebrating",
  "3377": "awe",
  "3378": "campuses",
  "3379": "megha",
  "3380": "labelled",
  "3381": "musems",
  "3382": "emphasis",
  "3383": "pricier",
  "3384": "refreshed",
  "3385": "fre",
  "3386": "locdated",
  "3387": "accorn",
  "3388": "cityrooma",
  "3389": "definite",
  "3390": "strand",
  "3391": "ig[value_count]rogd",
  "3392": "ppeople",
  "3393": "comleted",
  "3394": "eaten",
  "3395": "raise",
  "3396": "yippe",
  "3397": "luncheon",
  "3398": "cold",
  "3399": "donothavereservationnumbers",
  "3400": "littlelamb[value_count]",
  "3401": "yu",
  "3402": "physically",
  "3403": "fingered",
  "3404": "notified",
  "3405": "infocentre",
  "3406": "citycroomz",
  "3407": "[value_count]ygetj[value_count]",
  "3408": "ckk[value_count]sqo",
  "3409": "woiuld",
  "3410": "have[value_count]indian",
  "3411": "tickle",
  "3412": "outdoors",
  "3413": "norway",
  "3414": "doable",
  "3415": "hep",
  "3416": "ucvh[value_count]qpu",
  "3417": "descriptions",
  "3418": "cb[value_count]jk",
  "3419": "[value_count]trains",
  "3420": "universally",
  "3421": "sit",
  "3422": "[value_count]o[value_count]gij",
  "3423": "apart",
  "3424": "parage",
  "3425": "boot",
  "3426": "refer",
  "3427": "xbyobyv[value_count]",
  "3428": "air",
  "3429": "indiana",
  "3430": "andres",
  "3431": "iup[value_count]oay",
  "3432": "ypu",
  "3433": "whopping",
  "3434": "k[value_count]e[value_count]v[value_count]xo",
  "3435": "barring",
  "3436": "delays",
  "3437": "limits",
  "3438": "troubles",
  "3439": "auli[value_count]nvqq",
  "3440": "addenbookes",
  "3441": "sometime",
  "3442": "garders",
  "3443": "beef",
  "3444": "wellington",
  "3445": "royal",
  "3446": "cb[value_count]uy",
  "3447": "improves",
  "3448": "carries",
  "3449": "graffitti",
  "3450": "stopping",
  "3451": "reasonably",
  "3452": "adforable",
  "3453": "oops",
  "3454": "timetable",
  "3455": "lovers",
  "3456": "collegeare",
  "3457": "respond",
  "3458": "clinical",
  "3459": "lists",
  "3460": "screen",
  "3461": "locked",
  "3462": "ghandhi",
  "3463": "centr",
  "3464": "meghan",
  "3465": "prefer[value_count]or",
  "3466": "req",
  "3467": "aylebray",
  "3468": "appealling",
  "3469": "fitted",
  "3470": "tatse",
  "3471": "availble",
  "3472": "sterling",
  "3473": "ag",
  "3474": "llammas",
  "3475": "misinformed",
  "3476": "bringing",
  "3477": "absoluting",
  "3478": "affect",
  "3479": "payment",
  "3480": "everybody",
  "3481": "[value_count]mn[value_count]hi",
  "3482": "blow",
  "3483": "adminssion",
  "3484": "addmisson",
  "3485": "dance",
  "3486": "third",
  "3487": "wifii",
  "3488": "purposes",
  "3489": "centrem",
  "3490": "audio",
  "3491": "li[value_count]d[value_count]s[value_count]y",
  "3492": "sjz[value_count]zj[value_count]v",
  "3493": "deperts",
  "3494": "hovw",
  "3495": "limitations",
  "3496": "ncie",
  "3497": "straight",
  "3498": "confrimation",
  "3499": "file",
  "3500": "newer",
  "3501": "settled",
  "3502": "tend",
  "3503": "fives",
  "3504": "palace",
  "3505": "midday",
  "3506": "entreance",
  "3507": "remains",
  "3508": "[value_count]t[value_count]nngg[value_count]",
  "3509": "tranfer",
  "3510": "discuss",
  "3511": "africa",
  "3512": "u[value_count]dufh",
  "3513": "consistently",
  "3514": "feedback",
  "3515": "excuse",
  "3516": "regional",
  "3517": "thw",
  "3518": "fin",
  "3519": "guarantees",
  "3520": "smile",
  "3521": "[value_count]a",
  "3522": "chestertom",
  "3523": "id#tr[value_count]",
  "3524": "auto",
  "3525": "disappointed",
  "3526": "perfre",
  "3527": "examples",
  "3528": "georgiana",
  "3529": "questiosn",
  "3530": "expensve",
  "3531": "trusting",
  "3532": "hemp",
  "3533": "constructed",
  "3534": "nightlife",
  "3535": "thatwork",
  "3536": "ths",
  "3537": "capabilities",
  "3538": "eager",
  "3539": "liketo",
  "3540": "hakks",
  "3541": "certian",
  "3542": "indin",
  "3543": "severail",
  "3544": "requested[value_count]",
  "3545": "levaing",
  "3546": "[value_count]minutes",
  "3547": "japenese",
  "3548": "fo",
  "3549": "companies",
  "3550": "goal",
  "3551": "anfrews",
  "3552": "eupopean",
  "3553": "futher",
  "3554": "foodon",
  "3555": "rance",
  "3556": "consult",
  "3557": "bnook",
  "3558": "ministry",
  "3559": "keen",
  "3560": "awhile",
  "3561": "byart",
  "3562": "addenbrokes",
  "3563": "william",
  "3564": "catherine",
  "3565": "cb[value_count]rl",
  "3566": "drag",
  "3567": "discourage",
  "3568": "generally",
  "3569": "haw",
  "3570": "iwillgetthatreferencenumber",
  "3571": "congradulatoions",
  "3572": "cb[value_count]bw",
  "3573": "noth",
  "3574": "dropoff",
  "3575": "cbooking",
  "3576": "poccode",
  "3577": "reaches",
  "3578": "univeristy",
  "3579": "utterly",
  "3580": "decadent",
  "3581": "reserevation",
  "3582": "pieces",
  "3583": "flg[value_count]zmc[value_count]",
  "3584": "shali",
  "3585": "cb[value_count]a",
  "3586": "lies",
  "3587": "charlin",
  "3588": "chan",
  "3589": "finds",
  "3590": "tacos",
  "3591": "gather",
  "3592": "woul",
  "3593": "huntingdo",
  "3594": "dieting",
  "3595": "seek",
  "3596": "referance",
  "3597": "toodles",
  "3598": "recurring",
  "3599": "absolute",
  "3600": "tre",
  "3601": "manufique",
  "3602": "asia",
  "3603": "postcard",
  "3604": "cambride",
  "3605": "smoothly",
  "3606": "sany",
  "3607": "hve",
  "3608": "pic",
  "3609": "trin",
  "3610": "residing",
  "3611": "peppered",
  "3612": "operates",
  "3613": "pot",
  "3614": "couse",
  "3615": "evdo[value_count]le",
  "3616": "vicinity",
  "3617": "iscb[value_count]lf",
  "3618": "alesbray",
  "3619": "leavinga",
  "3620": "boutiques",
  "3621": "[value_count]gboni[value_count]d",
  "3622": "byard",
  "3623": "cb[value_count]n",
  "3624": "oyucgosd",
  "3625": "punti",
  "3626": "nushua",
  "3627": "hospitals",
  "3628": "steet",
  "3629": "piced",
  "3630": "[value_count]hn[value_count]yskr",
  "3631": "von[value_count]z[value_count]",
  "3632": "preder",
  "3633": "ddei[value_count]k[value_count]u",
  "3634": "u[value_count]b[value_count]phwc",
  "3635": "[value_count]siqava",
  "3636": "candidates",
  "3637": "braoden",
  "3638": "hinchingbrook",
  "3639": "helpp",
  "3640": "holding",
  "3641": "exlpress",
  "3642": "rich",
  "3643": "hone",
  "3644": "rock",
  "3645": "resteraunt",
  "3646": "wipple",
  "3647": "camridge",
  "3648": "unite",
  "3649": "thatres",
  "3650": "l",
  "3651": "ane",
  "3652": "afrian",
  "3653": "olds",
  "3654": "treat",
  "3655": "[value_count]up[value_count]ra",
  "3656": "[value_count]d[value_count]zgie",
  "3657": "lexux",
  "3658": "suspect",
  "3659": "sala",
  "3660": "cb[value_count]d",
  "3661": "servies",
  "3662": "breakfastin",
  "3663": "catharines",
  "3664": "chrinese",
  "3665": "norm",
  "3666": "okey",
  "3667": "graton",
  "3668": "ro",
  "3669": "blowing",
  "3670": "tr[value_count]leaves",
  "3671": "attached",
  "3672": "fortr[value_count]",
  "3673": "spskxm[value_count]",
  "3674": "yours",
  "3675": "arrices",
  "3676": "wagamana",
  "3677": "alternately",
  "3678": "humble",
  "3679": "prestigous",
  "3680": "memories",
  "3681": "responsible",
  "3682": "barnwell",
  "3683": "honday",
  "3684": "extremely",
  "3685": "traid",
  "3686": "dojonoodlebar",
  "3687": "cbv[value_count]jg",
  "3688": "splurge",
  "3689": "haaka",
  "3690": "dop",
  "3691": "charm",
  "3692": "cb[value_count]et",
  "3693": "modifications",
  "3694": "appetizing",
  "3695": "vision",
  "3696": "quote",
  "3697": "kis",
  "3698": "smidge",
  "3699": "whch",
  "3700": "whic",
  "3701": "honestly",
  "3702": "widely",
  "3703": "praised",
  "3704": "northhampton",
  "3705": "tenison",
  "3706": "discount",
  "3707": "priorities",
  "3708": "theatr",
  "3709": "perfer",
  "3710": "peme",
  "3711": "hm",
  "3712": "pleasurable",
  "3713": "conf",
  "3714": "cb[value_count]fl",
  "3715": "[value_count]uggornq",
  "3716": "hopital",
  "3717": "bana",
  "3718": "ali",
  "3719": "doers",
  "3720": "sain",
  "3721": "unfortunatly",
  "3722": "ammenities",
  "3723": "heres",
  "3724": "resolving",
  "3725": "prepare",
  "3726": "relating",
  "3727": "[value_count]pacw[value_count]o",
  "3728": "nigh",
  "3729": "guidance",
  "3730": "tall",
  "3731": "monument",
  "3732": "injuries",
  "3733": "yiu",
  "3734": "l[value_count]ujkd",
  "3735": "shore",
  "3736": "crown",
  "3737": "centers",
  "3738": "crew",
  "3739": "informaton",
  "3740": "harvest",
  "3741": "bump",
  "3742": "random",
  "3743": "swamped",
  "3744": "lagging",
  "3745": "rater",
  "3746": "protuguese",
  "3747": "tight",
  "3748": "sidgewick",
  "3749": "cb[value_count]jgi",
  "3750": "snagged",
  "3751": "[value_count]jgoxqpx",
  "3752": "mmind",
  "3753": "sidgwich",
  "3754": "figured",
  "3755": "meatballs",
  "3756": "[value_count]th",
  "3757": "gourmet",
  "3758": "step",
  "3759": "cb[value_count]x",
  "3760": "aid",
  "3761": "collage",
  "3762": "suggests",
  "3763": "k[value_count]tpr[value_count]ui",
  "3764": "abvailable",
  "3765": "aspects",
  "3766": "graded",
  "3767": "canceled",
  "3768": "goville",
  "3769": "economical",
  "3770": "goo",
  "3771": "revised",
  "3772": "reflect",
  "3773": "ed",
  "3774": "cb[value_count]pg",
  "3775": "heal",
  "3776": "ability",
  "3777": "diffrent",
  "3778": "gilbert",
  "3779": "[value_count]xikh[value_count]z[value_count]",
  "3780": "retstate",
  "3781": "follow",
  "3782": "hosipital",
  "3783": "hilld",
  "3784": "shaddi",
  "3785": "interestingly",
  "3786": "babraham",
  "3787": "kkv[value_count]oagc",
  "3788": "contains",
  "3789": "knowledge",
  "3790": "refernce",
  "3791": "bg[value_count]no[value_count]",
  "3792": "eas",
  "3793": "[value_count]vbb[value_count]lk",
  "3794": "brings",
  "3795": "trust",
  "3796": "fry",
  "3797": "nummber",
  "3798": "hills",
  "3799": "magog",
  "3800": "gog",
  "3801": "[value_count]s[value_count]ab",
  "3802": "riverboar",
  "3803": "travavelling",
  "3804": "freee",
  "3805": "pizzera",
  "3806": "page",
  "3807": "bored",
  "3808": "completing",
  "3809": "cpd[value_count]xeji",
  "3810": "uknown",
  "3811": "presume",
  "3812": "haha",
  "3813": "forgotten",
  "3814": "bluw",
  "3815": "en",
  "3816": "adddress",
  "3817": "quickest",
  "3818": "faster",
  "3819": "eis",
  "3820": "jedburgh",
  "3821": "kigs",
  "3822": "ruskin",
  "3823": "regency",
  "3824": "zoo",
  "3825": "onward",
  "3826": "woluld",
  "3827": "atb",
  "3828": "chain",
  "3829": "rc[value_count]klu[value_count]",
  "3830": "cb[value_count]ojg",
  "3831": "number[value_count]p[value_count]bm[value_count]z",
  "3832": "youlike",
  "3833": "limited",
  "3834": "etrance",
  "3835": "anytheing",
  "3836": "supposedly",
  "3837": "fulfilled",
  "3838": "patronage",
  "3839": "nados",
  "3840": "chips[value_count]yy[value_count]",
  "3841": "tampa",
  "3842": "recommenation",
  "3843": "clerk",
  "3844": "careful",
  "3845": "drivers",
  "3846": "sorrry",
  "3847": "neighboring",
  "3848": "watch",
  "3849": "management",
  "3850": "ab[value_count]fm[value_count]",
  "3851": "tsujxvyu",
  "3852": "espensive",
  "3853": "true",
  "3854": "achitecture",
  "3855": "dreams",
  "3856": "wildest",
  "3857": "repainted",
  "3858": "bloomsburg",
  "3859": "portugese",
  "3860": "noone",
  "3861": "leeave",
  "3862": "recover",
  "3863": "cetnre",
  "3864": "heaar",
  "3865": "docked",
  "3866": "differ",
  "3867": "[value_count]gsf[value_count]",
  "3868": "sarch",
  "3869": "areat",
  "3870": "youhave",
  "3871": "husband",
  "3872": "e[value_count]cnap[value_count]",
  "3873": "cineman",
  "3874": "ordered",
  "3875": "moments",
  "3876": "bay",
  "3877": "wou",
  "3878": "till",
  "3879": "eye",
  "3880": "presently",
  "3881": "provies",
  "3882": "church[value_count]",
  "3883": "oz[value_count]qg[value_count]ok",
  "3884": "cineme",
  "3885": "nce",
  "3886": "=",
  "3887": "doctor",
  "3888": "maryschurch",
  "3889": "entra",
  "3890": "pizze",
  "3891": "lb",
  "3892": "gest",
  "3893": "welcom",
  "3894": "silly",
  "3895": "alley",
  "3896": "malasian",
  "3897": "elese",
  "3898": "settle",
  "3899": "seuss",
  "3900": "depearting",
  "3901": "bedouis",
  "3902": "dr",
  "3903": "gonvill",
  "3904": "specfic",
  "3905": "intervals",
  "3906": "secured",
  "3907": "jelly",
  "3908": "db[value_count]ds",
  "3909": "refernece",
  "3910": "abounding",
  "3911": "oral",
  "3912": "maxillofacial",
  "3913": "cuccina",
  "3914": "fault",
  "3915": "loved",
  "3916": "[value_count]axqut[value_count]u",
  "3917": "descrioption",
  "3918": "fax",
  "3919": "capability",
  "3920": "entires",
  "3921": "indain",
  "3922": "lensfeild",
  "3923": "m[value_count]uvolvxd",
  "3924": "thich",
  "3925": "k[value_count]l[value_count]ilc",
  "3926": "expinsive",
  "3927": "guestouses",
  "3928": "boked",
  "3929": "cb[value_count]llh",
  "3930": "brookshite",
  "3931": "cause",
  "3932": "dock",
  "3933": "for[value_count]or",
  "3934": "interist",
  "3935": "bread",
  "3936": "relevant",
  "3937": "i'n",
  "3938": "reminding",
  "3939": "cb[value_count]if",
  "3940": "parksid",
  "3941": "shaddia",
  "3942": "ent",
  "3943": "davinci",
  "3944": "gain",
  "3945": "community",
  "3946": "lan",
  "3947": "lost",
  "3948": "son",
  "3949": "sleeps",
  "3950": "goodbye[value_count]",
  "3951": "wouold",
  "3952": "mistakenly",
  "3953": "caring",
  "3954": "m[value_count]x[value_count]h",
  "3955": "initially",
  "3956": "nuber",
  "3957": "margerita",
  "3958": "pizzerias",
  "3959": "tha",
  "3960": "refs",
  "3961": "bloombury",
  "3962": "lives",
  "3963": "cityroomzs",
  "3964": "prerequisites",
  "3965": "chesterson",
  "3966": "cb[value_count]et[value_count]",
  "3967": "unfortunatley",
  "3968": "refeence",
  "3969": "substitute",
  "3970": "perimater",
  "3971": "uti[value_count]swfb",
  "3972": "calculates",
  "3973": "shout",
  "3974": "complte",
  "3975": "retrieve",
  "3976": "bite",
  "3977": "barbers",
  "3978": "conversations",
  "3979": "summer",
  "3980": "combination",
  "3981": "deeply",
  "3982": "foot",
  "3983": "dig",
  "3984": "yesm",
  "3985": "opgq[value_count]",
  "3986": "casual",
  "3987": "flip",
  "3988": "smooth",
  "3989": "ambiguous",
  "3990": "industry",
  "3991": "cn[value_count]dq",
  "3992": "sold",
  "3993": "posey",
  "3994": "core",
  "3995": "hni",
  "3996": "jiggiest",
  "3997": "bambridge",
  "3998": "epensive",
  "3999": "waqs",
  "4000": "are[value_count]start",
  "4001": "huntingdown",
  "4002": "klofpfum",
  "4003": "lynne",
  "4004": "stover",
  "4005": "soccer",
  "4006": "rounding",
  "4007": "noolde",
  "4008": "sveral",
  "4009": "ditten",
  "4010": "function",
  "4011": "anythinng",
  "4012": "bright",
  "4013": "cmbridge",
  "4014": "foru",
  "4015": "j[value_count]qggj[value_count]",
  "4016": "priceed",
  "4017": "indifferent",
  "4018": "reliable",
  "4019": "recoment",
  "4020": "guesethouse",
  "4021": "rented",
  "4022": "nautical",
  "4023": "isherschel",
  "4024": "andhave",
  "4025": "munber",
  "4026": "searchby",
  "4027": "frames",
  "4028": "chear",
  "4029": "sheeps",
  "4030": "checkin",
  "4031": "thompsons",
  "4032": "deaprting",
  "4033": "clement",
  "4034": "nanfos",
  "4035": "sample",
  "4036": "adventurous",
  "4037": "picnic",
  "4038": "nd",
  "4039": "bennies",
  "4040": "god",
  "4041": "wonderfule",
  "4042": "mystery",
  "4043": "firm",
  "4044": "academic",
  "4045": "withing",
  "4046": "thaks",
  "4047": "advanced",
  "4048": "ibiza",
  "4049": "iscb[value_count]ih",
  "4050": "and[value_count]star",
  "4051": "hostpital",
  "4052": "imformation",
  "4053": "temporary",
  "4054": "lapse",
  "4055": "importance",
  "4056": "cambridgeshire",
  "4057": "suucessful",
  "4058": "goden",
  "4059": "[value_count]fs",
  "4060": "hpospital",
  "4061": "milon",
  "4062": "l[value_count]m[value_count]mwf",
  "4063": "steep",
  "4064": "iscb[value_count]aq",
  "4065": "soft",
  "4066": "cb[value_count]ae",
  "4067": "restauarant",
  "4068": "weel",
  "4069": "aaint",
  "4070": "specialize",
  "4071": "originally",
  "4072": "onfriday",
  "4073": "cb[value_count]r[value_count]",
  "4074": "wroth",
  "4075": "wondering",
  "4076": "dj",
  "4077": "squalour",
  "4078": "lgtar[value_count]r",
  "4079": "stroll",
  "4080": "[value_count]am",
  "4081": "telsa",
  "4082": "mercer",
  "4083": "binh",
  "4084": "countryside",
  "4085": "hoilday",
  "4086": "specials",
  "4087": "itis",
  "4088": "cde",
  "4089": "posrtcode",
  "4090": "tnahh",
  "4091": "x[value_count]tb[value_count]r[value_count]",
  "4092": "belgry",
  "4093": "organize",
  "4094": "screaming",
  "4095": "widen",
  "4096": "skip",
  "4097": "brittish",
  "4098": "bot",
  "4099": "griffiti",
  "4100": "swell",
  "4101": "ours",
  "4102": "therea",
  "4103": "misread",
  "4104": "om",
  "4105": "luggage",
  "4106": "nuerology",
  "4107": "nuerosurgery",
  "4108": "bride",
  "4109": "van",
  "4110": "vince",
  "4111": "recommen",
  "4112": "rateing",
  "4113": "standsted",
  "4114": "availabe",
  "4115": "vague",
  "4116": "wast",
  "4117": "northe",
  "4118": "xxx",
  "4119": "processing",
  "4120": "helpline",
  "4121": "intrinity",
  "4122": "hs",
  "4123": "rmj[value_count]dtl",
  "4124": "cut",
  "4125": "slide",
  "4126": "seventeen",
  "4127": "coat",
  "4128": "safely",
  "4129": "bbq",
  "4130": "prefences",
  "4131": "calm",
  "4132": "gwydir",
  "4133": "meats",
  "4134": "ofter",
  "4135": "protugese",
  "4136": "ctre",
  "4137": "input",
  "4138": "owned",
  "4139": "respective",
  "4140": "hook",
  "4141": "onsundar",
  "4142": "sitar",
  "4143": "tandoon",
  "4144": "[value_count]pounds",
  "4145": "sleep",
  "4146": "srt",
  "4147": "isn[value_count]s[value_count]frhg",
  "4148": "ghp",
  "4149": "activites",
  "4150": "focus",
  "4151": "approx",
  "4152": "excitement",
  "4153": "fetch",
  "4154": "cars",
  "4155": "ytou",
  "4156": "critieria",
  "4157": "cambrigde",
  "4158": "le",
  "4159": "effort",
  "4160": "landmarks",
  "4161": "boo",
  "4162": "al",
  "4163": "comeback",
  "4164": "boaters",
  "4165": "wecome",
  "4166": "hits",
  "4167": "pol",
  "4168": "tine",
  "4169": "polic",
  "4170": "il",
  "4171": "xdyjmto[value_count]",
  "4172": "prank",
  "4173": "wamagama",
  "4174": "encountering",
  "4175": "pique",
  "4176": "coin",
  "4177": "snarky",
  "4178": "comments",
  "4179": "susccessful",
  "4180": "[value_count]l[value_count]fbgwg",
  "4181": "colto",
  "4182": "archyway",
  "4183": "ciquito",
  "4184": "established",
  "4185": "continuing",
  "4186": "[value_count]kmvo[value_count]nf",
  "4187": "[value_count]nd",
  "4188": "recomendations",
  "4189": "industrical",
  "4190": "michehouse",
  "4191": "jinlin",
  "4192": "seated",
  "4193": "gandhi",
  "4194": "enxxh[value_count]xh",
  "4195": "htepd[value_count]lj",
  "4196": "congrats",
  "4197": "claire",
  "4198": "bww",
  "4199": "tss[value_count]th",
  "4200": "liecester",
  "4201": "varied",
  "4202": "bind",
  "4203": "cage",
  "4204": "couny",
  "4205": "cb[value_count]pt",
  "4206": "exercise",
  "4207": "summarizing",
  "4208": "cabdrife",
  "4209": "ghoodbye",
  "4210": "transaction",
  "4211": "arrivign",
  "4212": "besides",
  "4213": "ref#"
}