{
  "_GO": 0,
  "_EOS": 1,
  "_UNK": 2,
  "_PAD": 3,
  "_SEP0": 4,
  "_SEP1": 5,
  "_SEP2": 6,
  "_SEP3": 7,
  "_SEP4": 8,
  "_SEP5": 9,
  "_SEP6": 10,
  "_SEP7": 11,
  "inform": 0,
  ".": 1,
  "i": 2,
  "hotel": 3,
  "restaurant": 4,
  "the": 5,
  "train": 6,
  ",": 7,
  "a": 8,
  "to": 9,
  "for": 10,
  "you": 11,
  "?": 12,
  "thank": 13,
  "request": 14,
  "that": 15,
  "[value_count]": 16,
  "none": 17,
  "need": 18,
  "and": 19,
  "attraction": 20,
  "in": 21,
  "people": 22,
  "area": 23,
  "please": 24,
  "general": 25,
  "day": 26,
  "price": 27,
  "can": 28,
  "me": 29,
  "[value_day]": 30,
  "is": 31,
  "[value_time]": 32,
  "[value_place]": 33,
  "on": 34,
  "type": 35,
  "taxi": 36,
  "food": 37,
  "it": 38,
  "yes": 39,
  "looking": 40,
  "like": 41,
  "[value_area]": 42,
  "of": 43,
  "would": 44,
  "all": 45,
  "be": 46,
  "phone": 47,
  "!": 48,
  "time": 49,
  "book": 50,
  "also": 51,
  "leave": 52,
  "number": 53,
  "no": 54,
  "depart": 55,
  "[value_pricerange]": 56,
  "have": 57,
  "am": 58,
  "stay": 59,
  "dest": 60,
  "m": 61,
  "arrive": 62,
  "help": 63,
  "thanks": 64,
  "s": 65,
  "parking": 66,
  "at": 67,
  "from": 68,
  "will": 69,
  "do": 70,
  "place": 71,
  "what": 72,
  "name": 73,
  "find": 74,
  "[value_food]": 75,
  "free": 76,
  "there": 77,
  "get": 78,
  "by": 79,
  "great": 80,
  "town": 81,
  "addr": 82,
  "post": 83,
  "address": 84,
  "stars": 85,
  "with": 86,
  "about": 87,
  "n't": 88,
  "internet": 89,
  "your": 90,
  "nights": 91,
  "could": 92,
  "want": 93,
  "any": 94,
  "postcode": 95,
  "just": 96,
  "d": 97,
  "range": 98,
  "go": 99,
  "-s": 100,
  "ref": 101,
  "much": 102,
  "reference": 103,
  "as": 104,
  "fee": 105,
  "should": 106,
  "after": 107,
  "are": 108,
  "bye": 109,
  "so": 110,
  "goodbye": 111,
  "[restaurant_name]": 112,
  "an": 113,
  "star": 114,
  "give": 115,
  "how": 116,
  "today": 117,
  "not": 118,
  "ll": 119,
  "wifi": 120,
  "sounds": 121,
  "starting": 122,
  "but": 123,
  "information": 124,
  "does": 125,
  "guesthouse": 126,
  "same": 127,
  "if": 128,
  "leaving": 129,
  "[attraction_name]": 130,
  "[hotel_name]": 131,
  "ticket": 132,
  "needed": 133,
  "table": 134,
  "good": 135,
  "some": 136,
  "going": 137,
  "their": 138,
  "my": 139,
  "tell": 140,
  "reservation": 141,
  "now": 142,
  "something": 143,
  "entrance": 144,
  "priced": 145,
  "try": 146,
  "sure": 147,
  "fine": 148,
  "serves": 149,
  "travel": 150,
  "actually": 151,
  "recommend": 152,
  "-ly": 153,
  "make": 154,
  "booking": 155,
  "know": 156,
  "hi": 157,
  "well": 158,
  "hospital": 159,
  "called": 160,
  "okay": 161,
  "part": 162,
  "car": 163,
  "very": 164,
  "this": 165,
  "departing": 166,
  "we": 167,
  "was": 168,
  "really": 169,
  "think": 170,
  "id": 171,
  "museum": 172,
  "everything": 173,
  "ok": 174,
  "matter": 175,
  "has": 176,
  "tickets": 177,
  "take": 178,
  "care": 179,
  "include": 180,
  "they": 181,
  "too": 182,
  "visit": 183,
  "rating": 184,
  "hello": 185,
  "let": 186,
  "provide": 187,
  "eat": 188,
  "police": 189,
  "side": 190,
  "perfect": 191,
  "available": 192,
  "prefer": 193,
  "room": 194,
  "college": 195,
  "anything": 196,
  "long": 197,
  "contact": 198,
  "then": 199,
  "may": 200,
  "instead": 201,
  "nice": 202,
  "leaves": 203,
  "between": 204,
  "located": 205,
  "center": 206,
  "work": 207,
  "sorry": 208,
  "person": 209,
  "preference": 210,
  "them": 211,
  "dine": 212,
  "where": 213,
  "info": 214,
  "been": 215,
  "pick": 216,
  "trip": 217,
  "or": 218,
  "arriving": 219,
  "booked": 220,
  "out": 221,
  "up": 222,
  "attractions": 223,
  "check": 224,
  "departure": 225,
  "night": 226,
  "particular": 227,
  "ve": 228,
  "see": 229,
  "more": 230,
  "again": 231,
  "arrives": 232,
  "traveling": 233,
  "right": 234,
  "which": 235,
  "serve": 236,
  "us": 237,
  "city": 238,
  "entertainment": 239,
  "arrival": 240,
  "needs": 241,
  "those": 242,
  "possible": 243,
  "code": 244,
  "oh": 245,
  "finding": 246,
  "nope": 247,
  "greet": 248,
  "though": 249,
  "look": 250,
  "helpful": 251,
  "planning": 252,
  "near": 253,
  "somewhere": 254,
  "interested": 255,
  "staying": 256,
  "before": 257,
  "suggest": 258,
  "reserve": 259,
  "yet": 260,
  "else": 261,
  "send": 262,
  "first": 263,
  "when": 264,
  "set": 265,
  "yeah": 266,
  "commute": 267,
  "either": 268,
  "while": 269,
  "location": 270,
  "other": 271,
  "park": 272,
  "appreciate": 273,
  "maybe": 274,
  "group": 275,
  "trying": 276,
  "mind": 277,
  "its": 278,
  "museums": 279,
  "trains": 280,
  "station": 281,
  "house": 282,
  "later": 283,
  "another": 284,
  "love": 285,
  "pool": 286,
  "myself": 287,
  "wonderful": 288,
  "cost": 289,
  "around": 290,
  "serving": 291,
  "best": 292,
  "department": 293,
  "kind": 294,
  "local": 295,
  "departs": 296,
  "heading": 297,
  "architecture": 298,
  "sports": 299,
  "suggestions": 300,
  "favorite": 301,
  "options": 302,
  "colleges": 303,
  "guest": 304,
  "only": 305,
  "coming": 306,
  "nightclub": 307,
  "theatre": 308,
  "assistance": 309,
  "still": 310,
  "guesthouses": 311,
  "preferably": 312,
  "interesting": 313,
  "swimming": 314,
  "able": 315,
  "choose": 316,
  "fun": 317,
  "awesome": 318,
  "got": 319,
  "hoping": 320,
  "works": 321,
  "close": 322,
  "wo": 323,
  "goes": 324,
  "needing": 325,
  "cuisine": 326,
  "recommendation": 327,
  "specific": 328,
  "ahead": 329,
  "than": 330,
  "lot": 331,
  "offer": 332,
  "call": 333,
  "nothing": 334,
  "multiple": 335,
  "into": 336,
  "[train_id]": 337,
  "reservations": 338,
  "guess": 339,
  "different": 340,
  "destination": 341,
  "re": 342,
  "did": 343,
  "both": 344,
  "sometime": 345,
  "alright": 346,
  "boat": 347,
  "excellent": 348,
  "cinema": 349,
  "ca": 350,
  "open": 351,
  "once": 352,
  "helping": 353,
  "party": 354,
  "offers": 355,
  "necessary": 356,
  "confirm": 357,
  "wanted": 358,
  "lets": 359,
  "wait": 360,
  "nearby": 361,
  "visiting": 362,
  "seats": 363,
  "total": 364,
  "were": 365,
  "closest": 366,
  "[hospital_name]": 367,
  "many": 368,
  "whatever": 369,
  "here": 370,
  "hmm": 371,
  "back": 372,
  "thing": 373,
  "little": 374,
  "heard": 375,
  "recommendations": 376,
  "picked": 377,
  "ready": 378,
  "[hospital_department]": 379,
  "earlier": 380,
  "use": 381,
  "rated": 382,
  "beginning": 383,
  "believe": 384,
  "end": 385,
  "american": 386,
  "least": 387,
  "might": 388,
  "moment": 389,
  "anytime": 390,
  "things": 391,
  "nearest": 392,
  "definitely": 393,
  "ride": 394,
  "someplace": 395,
  "important": 396,
  "rooms": 397,
  "nt": 398,
  "locate": 399,
  "our": 400,
  "pm": 401,
  "wondering": 402,
  "headed": 403,
  "dinner": 404,
  "perhaps": 405,
  "said": 406,
  "list": 407,
  "london": 408,
  "[police_name]": 409,
  "most": 410,
  "wanting": 411,
  "better": 412,
  "ones": 413,
  "cool": 414,
  "thinking": 415,
  "must": 416,
  "named": 417,
  "postal": 418,
  "suggestion": 419,
  "say": 420,
  "next": 421,
  "assist": 422,
  "forgot": 423,
  "whichever": 424,
  "tonight": 425,
  "search": 426,
  "hey": 427,
  "days": 428,
  "forward": 429,
  "correct": 430,
  "schedule": 431,
  "whether": 432,
  "church": 433,
  "criteria": 434,
  "told": 435,
  "lodging": 436,
  "early": 437,
  "start": 438,
  "done": 439,
  "takes": 440,
  "come": 441,
  "fees": 442,
  "quite": 443,
  "service": 444,
  "surprise": 445,
  "travelling": 446,
  "dining": 447,
  "seat": 448,
  "injured": 449,
  "fantastic": 450,
  "picky": 451,
  "new": 452,
  "rather": 453,
  "questions": 454,
  "change": 455,
  "way": 456,
  "accident": 457,
  "however": 458,
  "these": 459,
  "head": 460,
  "tourist": 461,
  "venue": 462,
  "option": 463,
  "evening": 464,
  "checking": 465,
  "excited": 466,
  "nightclubs": 467,
  "morning": 468,
  "#": 469,
  "robbed": 470,
  "why": 471,
  "soon": 472,
  "street": 473,
  "plan": 474,
  "enough": 475,
  "had": 476,
  "bit": 477,
  "parks": 478,
  "mentioned": 479,
  "certain": 480,
  "times": 481,
  "already": 482,
  "getting": 483,
  "off": 484,
  "course": 485,
  "hope": 486,
  "thought": 487,
  "specifically": 488,
  "lovely": 489,
  "never": 490,
  "choice": 491,
  "numbers": 492,
  "telephone": 493,
  "sound": 494,
  "modern": 495,
  "happen": 496,
  "gallery": 497,
  "hour": 498,
  "friend": 499,
  "fit": 500,
  "included": 501,
  "down": 502,
  "-er": 503,
  "keep": 504,
  "suppose": 505,
  "full": 506,
  "confirmation": 507,
  "welcome": 508,
  "details": 509,
  "last": 510,
  "gets": 511,
  "breakfast": 512,
  "catch": 513,
  "boating": 514,
  "money": 515,
  "over": 516,
  "afternoon": 517,
  "second": 518,
  "per": 519,
  "accommodate": 520,
  "guests": 521,
  "acorn": 522,
  "fi": 523,
  "types": 524,
  "until": 525,
  "kings": 526,
  "apologize": 527,
  "availability": 528,
  "king": 529,
  "accommodations": 530,
  "meant": 531,
  "arrange": 532,
  "airport": 533,
  "bed": 534,
  "helped": 535,
  "high": 536,
  "&": 537,
  "enjoy": 538,
  "sort": 539,
  "wi": 540,
  "double": 541,
  "few": 542,
  "cross": 543,
  "possibly": 544,
  "being": 545,
  "pay": 546,
  "theatres": 547,
  "case": 548,
  "pretty": 549,
  "wife": 550,
  "covers": 551,
  "confusion": 552,
  "pools": 553,
  "theater": 554,
  "admission": 555,
  "concerthall": 556,
  "made": 557,
  "cab": 558,
  "during": 559,
  "including": 560,
  "exactly": 561,
  "since": 562,
  "northern": 563,
  "exact": 564,
  "ill": 565,
  "liverpool": 566,
  "earliest": 567,
  "closer": 568,
  "flexible": 569,
  "choices": 570,
  "ever": 571,
  "answered": 572,
  "zero": 573,
  "inexpensive": 574,
  "um": 575,
  "looks": 576,
  "seems": 577,
  "seeing": 578,
  "concert": 579,
  "jamaican": 580,
  "swimmingpool": 581,
  "australian": 582,
  "upcoming": 583,
  "dispute": 584,
  "family": 585,
  "boats": 586,
  "meets": 587,
  "wow": 588,
  "eastern": 589,
  "he": 590,
  "require": 591,
  "austrian": 592,
  "mid": 593,
  "problem": 594,
  "such": 595,
  "bunch": 596,
  "pizza": 597,
  "budget": 598,
  "vegetarian": 599,
  "within": 600,
  "recommended": 601,
  "taken": 602,
  "hold": 603,
  "lodge": 604,
  "amount": 605,
  "further": 606,
  "club": 607,
  "nah": 608,
  "alone": 609,
  "covered": 610,
  "select": 611,
  "art": 612,
  "point": 613,
  "chance": 614,
  "asian": 615,
  "friends": 616,
  "upscale": 617,
  "pricing": 618,
  "along": 619,
  "mood": 620,
  "late": 621,
  "regarding": 622,
  "german": 623,
  "mention": 624,
  "mean": 625,
  "given": 626,
  "corsica": 627,
  "verify": 628,
  "taking": 629,
  "asked": 630,
  "listed": 631,
  "bishops": 632,
  "without": 633,
  "changed": 634,
  "preferred": 635,
  "staring": 636,
  "hall": 637,
  "irish": 638,
  "unusual": 639,
  "danish": 640,
  "week": 641,
  "familiar": 642,
  "popular": 643,
  "cinemas": 644,
  "hear": 645,
  "bad": 646,
  "absolutely": 647,
  "rest": 648,
  "directions": 649,
  "concerned": 650,
  "minutes": 651,
  "gathering": 652,
  "saint": 653,
  "found": 654,
  "costs": 655,
  "preferences": 656,
  "greek": 657,
  "gonville": 658,
  "adress": 659,
  "bistro": 660,
  "business": 661,
  "making": 662,
  "requirement": 663,
  "christmas": 664,
  "[value_price]": 665,
  "ideas": 666,
  "style": 667,
  "indonesian": 668,
  "particularly": 669,
  "persian": 670,
  "each": 671,
  "swedish": 672,
  "object": 673,
  "scottish": 674,
  "hungry": 675,
  "malaysian": 676,
  "even": 677,
  "confused": 678,
  "hungarian": 679,
  "architectural": 680,
  "milton": 681,
  "lodgings": 682,
  "alot": 683,
  "addresses": 684,
  "schedules": 685,
  "forget": 686,
  "latest": 687,
  "caribbean": 688,
  "probably": 689,
  "because": 690,
  "cafe": 691,
  "narrow": 692,
  "craving": 693,
  "catalan": 694,
  "someone": 695,
  "traditional": 696,
  "certainly": 697,
  "own": 698,
  "complete": 699,
  "holiday": 700,
  "duration": 701,
  "kosher": 702,
  "fen": 703,
  "nooffer": 704,
  "weekend": 705,
  "far": 706,
  "ditton": 707,
  "idea": 708,
  "lynn": 709,
  "anyway": 710,
  "ideally": 711,
  "venetian": 712,
  "bar": 713,
  "cuban": 714,
  "happy": 715,
  "reserved": 716,
  "afghan": 717,
  "actual": 718,
  "super": 719,
  "russian": 720,
  "crossover": 721,
  "decide": 722,
  "charge": 723,
  "access": 724,
  "swiss": 725,
  "middle": 726,
  "creative": 727,
  "mistake": 728,
  "meeting": 729,
  "ideal": 730,
  "husband": 731,
  "section": 732,
  "postcodes": 733,
  "spend": 734,
  "pricey": 735,
  "driver": 736,
  "cheapest": 737,
  "spot": 738,
  "issue": 739,
  "figure": 740,
  "polynesian": 741,
  "names": 742,
  "eating": 743,
  "show": 744,
  "took": 745,
  "nevermind": 746,
  "inn": 747,
  "cantonese": 748,
  "entry": 749,
  "fusion": 750,
  "st": 751,
  "fails": 752,
  "gave": 753,
  "steakhouse": 754,
  "aylesbray": 755,
  "related": 756,
  "description": 757,
  "worry": 758,
  "worried": 759,
  "hmmm": 760,
  "moroccan": 761,
  "quick": 762,
  "tuscan": 763,
  "churches": 764,
  "buy": 765,
  "amenities": 766,
  "remember": 767,
  "meet": 768,
  "big": 769,
  "services": 770,
  "hut": 771,
  "asking": 772,
  "feel": 773,
  "having": 774,
  "molecular": 775,
  "polish": 776,
  "mutliple": 777,
  "doing": 778,
  "gastronomy": 779,
  "special": 780,
  "fancy": 781,
  "county": 782,
  "eritrean": 783,
  "terrific": 784,
  "hopefully": 785,
  "willing": 786,
  "wish": 787,
  "who": 788,
  "kindly": 789,
  "transportation": 790,
  "bummer": 791,
  "category": 792,
  "searching": 793,
  "fits": 794,
  "away": 795,
  "westside": 796,
  "plans": 797,
  "always": 798,
  "halal": 799,
  "hinton": 800,
  "cherry": 801,
  "barbeque": 802,
  "birmingham": 803,
  "panasian": 804,
  "latin": 805,
  "offerbook": 806,
  "express": 807,
  "lunch": 808,
  "conversation": 809,
  "system": 810,
  "trouble": 811,
  "run": 812,
  "alexander": 813,
  "p": 814,
  "wrong": 815,
  "seem": 816,
  "english": 817,
  "date": 818,
  "world": 819,
  "amazing": 820,
  "attention": 821,
  "preferable": 822,
  "americas": 823,
  "sri": 824,
  "locating": 825,
  "picking": 826,
  "welsh": 827,
  "finished": 828,
  "currently": 829,
  "less": 830,
  "finches": 831,
  "belgian": 832,
  "b": 833,
  "eclectic": 834,
  "purchase": 835,
  "couple": 836,
  "restuarant": 837,
  "listings": 838,
  "hurt": 839,
  "misspoke": 840,
  "hobson": 841,
  "abbey": 842,
  "establishment": 843,
  "meal": 844,
  "hard": 845,
  "bites": 846,
  "[attraction_address]": 847,
  "howdy": 848,
  "lankan": 849,
  "scandinavian": 850,
  "thankyou": 851,
  "through": 852,
  "decided": 853,
  "downtown": 854,
  "appreciated": 855,
  "form": 856,
  "greetings": 857,
  "clarify": 858,
  "curry": 859,
  "others": 860,
  "old": 861,
  "anyone": 862,
  "main": 863,
  "school": 864,
  "bookings": 865,
  "noon": 866,
  "together": 867,
  "extra": 868,
  "quality": 869,
  "uh": 870,
  "confusing": 871,
  "marriott": 872,
  "houses": 873,
  "hm": 874,
  "fare": 875,
  "sleep": 876,
  "hong": 877,
  "play": 878,
  "brazilian": 879,
  "folk": 880,
  "stansted": 881,
  "tomorrow": 882,
  "question": 883,
  "provided": 884,
  "southern": 885,
  "cheers": 886,
  "singaporean": 887,
  "ot": 888,
  "although": 889,
  "similar": 890,
  "tour": 891,
  "deal": 892,
  "successful": 893,
  "darn": 894,
  "quickly": 895,
  "almost": 896,
  "fact": 897,
  "explore": 898,
  "curious": 899,
  "light": 900,
  "unfortunately": 901,
  "tables": 902,
  "ian": 903,
  "expect": 904,
  "miss": 905,
  "gardens": 906,
  "whipple": 907,
  "kid": 908,
  "tax": 909,
  "basque": 910,
  "put": 911,
  "alpha": 912,
  "experience": 913,
  "matters": 914,
  "fro": 915,
  "specification": 916,
  "discussed": 917,
  "yea": 918,
  "considered": 919,
  "yep": 920,
  "theaters": 921,
  "requests": 922,
  "realized": 923,
  "enjoyed": 924,
  "drop": 925,
  "company": 926,
  "above": 927,
  "direct": 928,
  "uno": 929,
  "operation": 930,
  "romanian": 931,
  "goodnight": 932,
  "walking": 933,
  "anymore": 934,
  "listing": 935,
  "passage": 936,
  "reviews": 937,
  "arbury": 938,
  "matches": 939,
  "entertaining": 940,
  "belfry": 941,
  "swim": 942,
  "save": 943,
  "opening": 944,
  "route": 945,
  "hate": 946,
  "everyone": 947,
  "extremely": 948,
  "supposed": 949,
  "running": 950,
  "impress": 951,
  "sweet": 952,
  "$": 953,
  "bus": 954,
  "involved": 955,
  "beautiful": 956,
  "cancel": 957,
  "working": 958,
  "stated": 959,
  "ah": 960,
  "lasting": 961,
  "talk": 962,
  "yo": 963,
  "western": 964,
  "finish": 965,
  "bored": 966,
  "foods": 967,
  "cambrige": 968,
  "canapes": 969,
  "touch": 970,
  "additional": 971,
  "marriot": 972,
  "punter": 973,
  "comes": 974,
  "starts": 975,
  "oops": 976,
  "distance": 977,
  "understand": 978,
  "top": 979,
  "consider": 980,
  "yummy": 981,
  "tremendously": 982,
  "ta": 983,
  "stick": 984,
  "indeed": 985,
  "halls": 986,
  "accommodation": 987,
  "math": 988,
  "seeking": 989,
  "tea": 990,
  "giving": 991,
  "journey": 992,
  "neat": 993,
  "drive": 994,
  "occasion": 995,
  "luck": 996,
  "helps": 997,
  "science": 998,
  "disappointing": 999,
  "especially": 1000,
  "ha": 1001,
  "botanic": 1002,
  "response": 1003,
  "paying": 1004,
  "cover": 1005,
  "bring": 1006,
  "zealand": 1007,
  "read": 1008,
  "talking": 1009,
  "commuting": 1010,
  "concern": 1011,
  "email": 1012,
  "resturant": 1013,
  "thurs": 1014,
  "[police_address]": 1015,
  "honestly": 1016,
  "decent": 1017,
  "clear": 1018,
  "[restaurant_address]": 1019,
  "under": 1020,
  "huntingdon": 1021,
  "real": 1022,
  "starving": 1023,
  "perfectly": 1024,
  "makes": 1025,
  "whenever": 1026,
  "stortford": 1027,
  "standsted": 1028,
  "wherever": 1029,
  "settle": 1030,
  "gueshouse": 1031,
  "bridge": 1032,
  "she": 1033,
  "wants": 1034,
  "activities": 1035,
  "based": 1036,
  "lol": 1037,
  "stuff": 1038,
  "[value_count],[value_count]": 1039,
  "error": 1040,
  "t": 1041,
  "odd": 1042,
  "whole": 1043,
  "affordable": 1044,
  "match": 1045,
  "silly": 1046,
  "stayed": 1047,
  "grab": 1048,
  "attending": 1049,
  "completed": 1050,
  "chop": 1051,
  "kitchen": 1052,
  "glad": 1053,
  "treat": 1054,
  "queen": 1055,
  "reach": 1056,
  "reasonable": 1057,
  "shop": 1058,
  "ton": 1059,
  "anniversary": 1060,
  "minute": 1061,
  "previous": 1062,
  "requested": 1063,
  "adults": 1064,
  "research": 1065,
  "cow": 1066,
  "addition": 1067,
  "bishop": 1068,
  "fan": 1069,
  "arts": 1070,
  "remembered": 1071,
  "patience": 1072,
  "teusday": 1073,
  "sight": 1074,
  "flying": 1075,
  "riverboat": 1076,
  "kinds": 1077,
  "length": 1078,
  "cambride": 1079,
  "green": 1080,
  "tight": 1081,
  "handle": 1082,
  "feeling": 1083,
  "fast": 1084,
  "job": 1085,
  "stop": 1086,
  "history": 1087,
  "desk": 1088,
  "greatly": 1089,
  "noodle": 1090,
  "mall": 1091,
  "eatery": 1092,
  "provides": 1093,
  "trust": 1094,
  "rate": 1095,
  "towninfo": 1096,
  "public": 1097,
  "stevanage": 1098,
  "jello": 1099,
  "lost": 1100,
  "single": 1101,
  "calling": 1102,
  "robbery": 1103,
  "reasonably": 1104,
  "attend": 1105,
  "yourself": 1106,
  "global": 1107,
  "movie": 1108,
  "trainid": 1109,
  "space": 1110,
  "archaeology": 1111,
  "ya": 1112,
  "ago": 1113,
  "pounds": 1114,
  "relatively": 1115,
  "petersborough": 1116,
  "offering": 1117,
  "de": 1118,
  "connect": 1119,
  "towards": 1120,
  "cucina": 1121,
  "luca": 1122,
  "gives": 1123,
  "sport": 1124,
  "fax": 1125,
  "frankie": 1126,
  "raise": 1127,
  "benny": 1128,
  "celebrating": 1129,
  "rosa": 1130,
  "sister": 1131,
  "dates": 1132,
  "appointment": 1133,
  "home": 1134,
  "shopping": 1135,
  "using": 1136,
  "interest": 1137,
  "easy": 1138,
  "accept": 1139,
  "afford": 1140,
  "openings": 1141,
  "month": 1142,
  "taxis": 1143,
  "convenient": 1144,
  "entire": 1145,
  "rental": 1146,
  "deciding": 1147,
  "maharajah": 1148,
  "arrangements": 1149,
  "advice": 1150,
  "chose": 1151,
  "driving": 1152,
  "leicaster": 1153,
  "setting": 1154,
  "saying": 1155,
  "victim": 1156,
  "man": 1157,
  "funky": 1158,
  "involving": 1159,
  "served": 1160,
  "direction": 1161,
  "dialogue": 1162,
  "la": 1163,
  "luxury": 1164,
  "receive": 1165,
  "offered": 1166,
  "insanely": 1167,
  "exist": 1168,
  "lastly": 1169,
  "usually": 1170,
  "acceptable": 1171,
  "move": 1172,
  "child": 1173,
  "[value_count]hrs": 1174,
  "kill": 1175,
  "historical": 1176,
  "saints": 1177,
  "l": 1178,
  "vacation": 1179,
  "latter": 1180,
  "anthropology": 1181,
  "speak": 1182,
  "ferret": 1183,
  "records": 1184,
  "fez": 1185,
  "discuss": 1186,
  "changing": 1187,
  "short": 1188,
  "centrally": 1189,
  "mary": 1190,
  "sometimes": 1191,
  "exciting": 1192,
  "mistaken": 1193,
  "addenbrookes": 1194,
  "concerns": 1195,
  "buildings": 1196,
  "lots": 1197,
  "sorts": 1198,
  "gotten": 1199,
  "fitzwilliam": 1200,
  "o'clock": 1201,
  "manager": 1202,
  "indoor": 1203,
  "difference": 1204,
  "bill": 1205,
  "red": 1206,
  "int": 1207,
  "previously": 1208,
  "wine": 1209,
  "cookhouse": 1210,
  "cambidge": 1211,
  "wandlebury": 1212,
  "matching": 1213,
  "stratford": 1214,
  "catherine": 1215,
  "fitting": 1216,
  "her": 1217,
  "peterbourough": 1218,
  "learn": 1219,
  "fair": 1220,
  "vehicle": 1221,
  "cetre": 1222,
  "resolving": 1223,
  "ummm": 1224,
  "waiting": 1225,
  "placed": 1226,
  "handy": 1227,
  "sights": 1228,
  "village": 1229,
  "begin": 1230,
  "parameters": 1231,
  "disregard": 1232,
  "lensfield": 1233,
  "apologies": 1234,
  "shorten": 1235,
  "unsure": 1236,
  "itself": 1237,
  "return": 1238,
  "handling": 1239,
  "low": 1240,
  "associated": 1241,
  "nirala": 1242,
  "aww": 1243,
  "neither": 1244,
  "customer": 1245,
  "putting": 1246,
  "true": 1247,
  "suitable": 1248,
  "crash": 1249,
  "advance": 1250,
  "arrived": 1251,
  "eastside": 1252,
  "random": 1253,
  "nicer": 1254,
  "facilities": 1255,
  "lucky": 1256,
  "specify": 1257,
  "passengers": 1258,
  "patient": 1259,
  "continue": 1260,
  "shoot": 1261,
  "hook": 1262,
  "pain": 1263,
  "necessity": 1264,
  "christ": 1265,
  "personal": 1266,
  "providing": 1267,
  "bet": 1268,
  "hot": 1269,
  "via": 1270,
  "year": 1271,
  "forth": 1272,
  "birthday": 1273,
  "pleas": 1274,
  "nee": 1275,
  "water": 1276,
  "sooner": 1277,
  "unfortunate": 1278,
  "fo": 1279,
  "heart": 1280,
  "likes": 1281,
  "emergency": 1282,
  "crossing": 1283,
  "o": 1284,
  "optional": 1285,
  "oriental": 1286,
  "varsity": 1287,
  "plus": 1288,
  "highest": 1289,
  "grateful": 1290,
  "gosh": 1291,
  "necessarily": 1292,
  "im": 1293,
  "huge": 1294,
  "break": 1295,
  "literally": 1296,
  "reserving": 1297,
  "met": 1298,
  "cuisines": 1299,
  "country": 1300,
  "boss": 1301,
  "live": 1302,
  "suit": 1303,
  "restraunt": 1304,
  "building": 1305,
  "advise": 1306,
  "directly": 1307,
  "pricier": 1308,
  "soonest": 1309,
  "interests": 1310,
  "arranging": 1311,
  "n": 1312,
  "involves": 1313,
  "land": 1314,
  "mine": 1315,
  "medium": 1316,
  "tree": 1317,
  "nando": 1318,
  "stazione": 1319,
  "golden": 1320,
  "londons": 1321,
  "unit": 1322,
  "talked": 1323,
  "lookup": 1324,
  "suffice": 1325,
  "whale": 1326,
  "involve": 1327,
  "rude": 1328,
  "confuse": 1329,
  "soul": 1330,
  "unless": 1331,
  "means": 1332,
  "ring": 1333,
  "totally": 1334,
  "rates": 1335,
  "tandoor": 1336,
  "joint": 1337,
  "backwards": 1338,
  "order": 1339,
  "broughton": 1340,
  "life": 1341,
  "shortly": 1342,
  "spots": 1343,
  "add": 1344,
  "medical": 1345,
  "distracted": 1346,
  "storford": 1347,
  "caught": 1348,
  "basic": 1349,
  "road": 1350,
  "injury": 1351,
  "codes": 1352,
  "reason": 1353,
  "hedges": 1354,
  "cambrdige": 1355,
  "event": 1356,
  "contacting": 1357,
  "ned": 1358,
  "afterwards": 1359,
  "bite": 1360,
  "happens": 1361,
  "planned": 1362,
  "toward": 1363,
  "conference": 1364,
  "girton": 1365,
  "aylesbury": 1366,
  "exhibition": 1367,
  "hearing": 1368,
  "portraits": 1369,
  "prior": 1370,
  "every": 1371,
  "sense": 1372,
  "luxurious": 1373,
  "sent": 1374,
  "darrys": 1375,
  "hospitals": 1376,
  "assume": 1377,
  "worries": 1378,
  "taste": 1379,
  "stanford": 1380,
  "suggested": 1381,
  "charges": 1382,
  "persons": 1383,
  "uhm": 1384,
  "na": 1385,
  "gon": 1386,
  "ooh": 1387,
  "cabridge": 1388,
  "guestroom": 1389,
  "nicely": 1390,
  "figuring": 1391,
  "proper": 1392,
  "cineworld": 1393,
  "mailing": 1394,
  "offerbooked": 1395,
  "chiquito": 1396,
  "commit": 1397,
  "hotspot": 1398,
  "transport": 1399,
  "concerthalls": 1400,
  "huntington": 1401,
  "sells": 1402,
  "corn": 1403,
  "sufficient": 1404,
  "report": 1405,
  "review": 1406,
  "known": 1407,
  "pass": 1408,
  "hurry": 1409,
  "repeat": 1410,
  "restraint": 1411,
  "pickup": 1412,
  "refernce": 1413,
  "confirmed": 1414,
  "[value_count]pm": 1415,
  "[hotel_address]": 1416,
  "comfortable": 1417,
  "telling": 1418,
  "unavailable": 1419,
  "stages": 1420,
  "classy": 1421,
  "outdoor": 1422,
  "site": 1423,
  "daughter": 1424,
  "plenty": 1425,
  "wold": 1426,
  "god": 1427,
  "opinion": 1428,
  "several": 1429,
  "finally": 1430,
  "riding": 1431,
  "dislike": 1432,
  "depends": 1433,
  "liek": 1434,
  "university": 1435,
  "line": 1436,
  "choosing": 1437,
  "watch": 1438,
  "solo": 1439,
  "huh": 1440,
  "notes": 1441,
  "oak": 1442,
  "honest": 1443,
  "adventure": 1444,
  "zip": 1445,
  "dishes": 1446,
  "researching": 1447,
  "write": 1448,
  "themed": 1449,
  "pleasant": 1450,
  "jot": 1451,
  "adc": 1452,
  "intend": 1453,
  "shortford": 1454,
  "tr[value_count]": 1455,
  "egg": 1456,
  "years": 1457,
  "stantsted": 1458,
  "thirty": 1459,
  "automobile": 1460,
  "strange": 1461,
  "gastropubs": 1462,
  "mixed": 1463,
  "operating": 1464,
  "appears": 1465,
  "bother": 1466,
  "pleases": 1467,
  "establishments": 1468,
  "efficient": 1469,
  "meh": 1470,
  "awhile": 1471,
  "board": 1472,
  "sheep": 1473,
  "rolls": 1474,
  "variety": 1475,
  "contemporary": 1476,
  "foe": 1477,
  "terms": 1478,
  "authentic": 1479,
  "fore": 1480,
  "saw": 1481,
  "fall": 1482,
  "walk": 1483,
  "barbecue": 1484,
  "round": 1485,
  "postcard": 1486,
  "naw": 1487,
  "regardless": 1488,
  "till": 1489,
  "michael": 1490,
  "ensure": 1491,
  "lovell": 1492,
  "complex": 1493,
  "pardon": 1494,
  "half": 1495,
  "create": 1496,
  "shortest": 1497,
  "pizzeria": 1498,
  "feature": 1499,
  "boyfriend": 1500,
  "parts": 1501,
  "small": 1502,
  "fabulous": 1503,
  "splendid": 1504,
  "precise": 1505,
  "departures": 1506,
  "online": 1507,
  "passenger": 1508,
  "map": 1509,
  "process": 1510,
  "detailed": 1511,
  "trian": 1512,
  "outside": 1513,
  "yellow": 1514,
  "whilst": 1515,
  "disagreement": 1516,
  "assisting": 1517,
  "sites": 1518,
  "bank": 1519,
  "umm": 1520,
  "forgotten": 1521,
  "darry": 1522,
  "junction": 1523,
  "fix": 1524,
  "rethinking": 1525,
  "current": 1526,
  "scratch": 1527,
  "goodness": 1528,
  "wonder": 1529,
  "his": 1530,
  "hit": 1531,
  "anyplace": 1532,
  "parents": 1533,
  "standby": 1534,
  "jesus": 1535,
  "left": 1536,
  "weeks": 1537,
  "conf": 1538,
  "galleries": 1539,
  "due": 1540,
  "results": 1541,
  "addensbrookes": 1542,
  "lower": 1543,
  "compare": 1544,
  "portugese": 1545,
  "eats": 1546,
  "apreciate": 1547,
  "fault": 1548,
  "barnabas": 1549,
  "afraid": 1550,
  "forever": 1551,
  "spending": 1552,
  "leaver": 1553,
  "inquire": 1554,
  "uber": 1555,
  "clubs": 1556,
  "thaks": 1557,
  "lammas": 1558,
  "front": 1559,
  "churchill": 1560,
  "falls": 1561,
  "tandoori": 1562,
  "frame": 1563,
  "minor": 1564,
  "e": 1565,
  "selection": 1566,
  "specified": 1567,
  "higher": 1568,
  "hand": 1569,
  "vue": 1570,
  "wonderfully": 1571,
  "artworks": 1572,
  "central": 1573,
  "northside": 1574,
  "indecisive": 1575,
  "unique": 1576,
  "lied": 1577,
  "destinations": 1578,
  "inbetween": 1579,
  "skoda": 1580,
  "chosen": 1581,
  "tr": 1582,
  "proceed": 1583,
  "card": 1584,
  "exchange": 1585,
  "shows": 1586,
  "diner": 1587,
  "satisfied": 1588,
  "ant": 1589,
  "restaraunt": 1590,
  "pasta": 1591,
  "steveage": 1592,
  "sat": 1593,
  "rage": 1594,
  "dig": 1595,
  "average": 1596,
  "aware": 1597,
  "don": 1598,
  "fr": 1599,
  "lines": 1600,
  "easier": 1601,
  "adult": 1602,
  "girlfriend": 1603,
  "delicious": 1604,
  "seating": 1605,
  "strover": 1606,
  "obviously": 1607,
  "leverton": 1608,
  "lynne": 1609,
  "beans": 1610,
  "kirkwood": 1611,
  "weird": 1612,
  "river": 1613,
  "expense": 1614,
  "says": 1615,
  "dear": 1616,
  "door": 1617,
  "ourselves": 1618,
  "action": 1619,
  "georgina": 1620,
  "corsican": 1621,
  "minimum": 1622,
  "rad": 1623,
  "allow": 1624,
  "boxbourne": 1625,
  "john": 1626,
  "menu": 1627,
  "fir": 1628,
  "[value_count]th": 1629,
  "required": 1630,
  "specializes": 1631,
  "examples": 1632,
  "simply": 1633,
  "warkworth": 1634,
  "audi": 1635,
  "gps": 1636,
  "sightseeing": 1637,
  "pleasure": 1638,
  "cozy": 1639,
  "looked": 1640,
  "magdalene": 1641,
  "plese": 1642,
  "cut": 1643,
  "thrusday": 1644,
  "fairly": 1645,
  "eye": 1646,
  "th": 1647,
  "besides": 1648,
  "sending": 1649,
  "punting": 1650,
  "unable": 1651,
  "restaurnt": 1652,
  "chicken": 1653,
  "bee": 1654,
  "tel": 1655,
  "past": 1656,
  "restaruants": 1657,
  "technology": 1658,
  "ghandi": 1659,
  "tourists": 1660,
  "loves": 1661,
  "went": 1662,
  "dropped": 1663,
  "refrence": 1664,
  "faster": 1665,
  "lonely": 1666,
  "picnic": 1667,
  "abd": 1668,
  "restrictions": 1669,
  "hates": 1670,
  "keeps": 1671,
  "chat": 1672,
  "wandered": 1673,
  "runs": 1674,
  "let`s": 1675,
  "arive": 1676,
  "maths": 1677,
  "nicest": 1678,
  "sightsee": 1679,
  "partner": 1680,
  "recheck": 1681,
  "bbq": 1682,
  "min": 1683,
  "activity": 1684,
  "focus": 1685,
  "doesn": 1686,
  "informtion": 1687,
  "convo": 1688,
  "specializing": 1689,
  "peopleat": 1690,
  "son": 1691,
  "delightful": 1692,
  "playing": 1693,
  "sad": 1694,
  "judgment": 1695,
  "peopl": 1696,
  "consist": 1697,
  "opposed": 1698,
  "state": 1699,
  "blow": 1700,
  "for[value_count]nights": 1701,
  "seriously": 1702,
  "thier": 1703,
  "centere": 1704,
  "restauant": 1705,
  "adios": 1706,
  "luncheon": 1707,
  "stinks": 1708,
  "thats": 1709,
  "neeed": 1710,
  "ti": 1711,
  "priority": 1712,
  "jiggy": 1713,
  "avaliable": 1714,
  "alls": 1715,
  "liecester": 1716,
  "suey": 1717,
  "weds": 1718,
  "bookm": 1719,
  "labelled": 1720,
  "norwhich": 1721,
  "thurday": 1722,
  "saved": 1723,
  "satruday": 1724,
  "lively": 1725,
  "caimbridge": 1726,
  "confirming": 1727,
  "shabby": 1728,
  "infusion": 1729,
  "stupid": 1730,
  "wedding": 1731,
  "mini": 1732,
  "blue": 1733,
  "beleive": 1734,
  "gain": 1735,
  "sitting": 1736,
  "brother": 1737,
  "cheer": 1738,
  "umber": 1739,
  "toyota": 1740,
  "mumford": 1741,
  "woah": 1742,
  "tag": 1743,
  "modest": 1744,
  "theme": 1745,
  "cars": 1746,
  "fussy": 1747,
  "third": 1748,
  "rent": 1749,
  "southend": 1750,
  "grub": 1751,
  "funk": 1752,
  "checked": 1753,
  "sporty": 1754,
  "dollars": 1755,
  "asap": 1756,
  "pound": 1757,
  "picks": 1758,
  "inthe": 1759,
  "universities": 1760,
  "inputting": 1761,
  "tastes": 1762,
  "johns": 1763,
  "anyways": 1764,
  "eriterean": 1765,
  "turn": 1766,
  "yeas": 1767,
  "overwhelming": 1768,
  "desperately": 1769,
  "missing": 1770,
  "estimated": 1771,
  "black": 1772,
  "erania": 1773,
  "bout": 1774,
  "laters": 1775,
  "towns": 1776,
  "jumping": 1777,
  "shall": 1778,
  "quote": 1779,
  "restauarnt": 1780,
  "chines": 1781,
  "traffic": 1782,
  "weish": 1783,
  "pops": 1784,
  "brilliant": 1785,
  "news": 1786,
  "haha": 1787,
  "perfer": 1788,
  "zoo": 1789,
  "funds": 1790,
  "blast": 1791,
  "costly": 1792,
  "bound": 1793,
  "sesame": 1794,
  "misspelled": 1795,
  "closet": 1796,
  "laptop": 1797,
  "amenity": 1798,
  "forty": 1799,
  "youu": 1800,
  "promising": 1801,
  "enter": 1802,
  "nightlife": 1803,
  "knew": 1804,
  "vicinity": 1805,
  "bottom": 1806,
  "taht": 1807,
  "stanstead": 1808,
  "ai": 1809,
  "postalcode": 1810,
  "wartworth": 1811,
  "limited": 1812,
  "alternate": 1813,
  "*": 1814,
  "grabbing": 1815,
  "etrance": 1816,
  "surely": 1817,
  "grand": 1818,
  "shanghai": 1819,
  "fot": 1820,
  "travels": 1821,
  "weill": 1822,
  "secure": 1823,
  "overwhelmed": 1824,
  "goobye": 1825,
  "norway": 1826,
  "deals": 1827,
  "sophisticated": 1828,
  "yard": 1829,
  "kettles": 1830,
  "leg": 1831,
  "afer": 1832,
  "meghan": 1833,
  "lobster": 1834,
  "morrocan": 1835,
  "mercedes": 1836,
  "suddenly": 1837,
  "hostel": 1838,
  "lay": 1839,
  "catharine": 1840,
  "showing": 1841,
  "celebrate": 1842,
  "wast": 1843,
  "allows": 1844,
  "tours": 1845,
  "boo": 1846,
  "tried": 1847,
  "considering": 1848,
  "whoa": 1849,
  "count": 1850,
  "faxed": 1851,
  "emailed": 1852,
  "reccommend": 1853,
  "dealing": 1854,
  "shucks": 1855,
  "enterance": 1856,
  "doe": 1857,
  "midnight": 1858,
  "ranged": 1859,
  "collage": 1860,
  "lexus": 1861,
  "splurging": 1862,
  "realize": 1863,
  "tired": 1864,
  "greater": 1865,
  "schools": 1866,
  "mainly": 1867,
  "mentioning": 1868,
  "organizing": 1869,
  "self": 1870,
  "touristy": 1871,
  "marvelous": 1872,
  "reccomendation": 1873,
  "peoples": 1874,
  "el": 1875,
  "guestrooms": 1876,
  "restuarants": 1877,
  "retaurant": 1878,
  "property": 1879,
  "approximate": 1880,
  "inquiries": 1881,
  "zipcode": 1882,
  "om": 1883,
  "consult": 1884,
  "typing": 1885,
  "yup": 1886,
  "swing": 1887,
  "closed": 1888,
  "elsewhere": 1889,
  "sounding": 1890,
  "came": 1891,
  "format": 1892,
  "clearly": 1893,
  "groups": 1894,
  "poscode": 1895,
  "proved": 1896,
  "renting": 1897,
  "settled": 1898,
  "slot": 1899,
  "hang": 1900,
  "hamilton": 1901,
  "minosa": 1902,
  "complimentary": 1903,
  "enjoyable": 1904,
  "argument": 1905,
  "crazy": 1906,
  "treating": 1907,
  "broxburne": 1908,
  "fight": 1909,
  "riders": 1910,
  "arrving": 1911,
  "prompt": 1912,
  "cash": 1913,
  "referrence": 1914,
  "listen": 1915,
  "reader": 1916,
  "friendly": 1917,
  "large": 1918,
  "market": 1919,
  "grill": 1920,
  "shift": 1921,
  "riverside": 1922,
  "lane": 1923,
  "england": 1924,
  "exploring": 1925,
  "relief": 1926,
  "steak": 1927,
  "narrows": 1928,
  "typo": 1929,
  "bringing": 1930,
  "security": 1931,
  "guide": 1932,
  "rock": 1933,
  "garden": 1934,
  "million": 1935,
  "paces": 1936,
  "atleast": 1937,
  "campuses": 1938,
  "yay": 1939,
  "relevant": 1940,
  "highly": 1941,
  "reastaurant": 1942,
  "awful": 1943,
  "nightsstarting": 1944,
  "incorrect": 1945,
  "gas": 1946,
  "accomodate": 1947,
  "sir": 1948,
  "girl": 1949,
  "doubt": 1950,
  "physical": 1951,
  "mother": 1952,
  "respond": 1953,
  "rice": 1954,
  "belfy": 1955,
  "points": 1956,
  "exhibit": 1957,
  "coffee": 1958,
  "longer": 1959,
  "ignore": 1960,
  "scene": 1961,
  "connection": 1962,
  "otherwise": 1963,
  "lowest": 1964,
  "intriguing": 1965,
  "turns": 1966,
  "disappointed": 1967,
  "mate": 1968,
  "fish": 1969,
  "holy": 1970,
  "october": 1971,
  "rains": 1972,
  "sushi": 1973,
  "[hospital_phone]": 1974,
  "lease": 1975,
  "tues": 1976,
  "dirty": 1977,
  "overall": 1978,
  "changes": 1979,
  "antolia": 1980,
  "correcting": 1981,
  "likely": 1982,
  "crossed": 1983,
  "sporting": 1984,
  "designation": 1985,
  "period": 1986,
  "focused": 1987,
  "barrel": 1988,
  "sleeperz": 1989,
  "handled": 1990,
  "cabs": 1991,
  "miles": 1992,
  "clown": 1993,
  "stuck": 1994,
  "cutting": 1995,
  "maintenance": 1996,
  "assuming": 1997,
  "computer": 1998,
  "meantime": 1999,
  "beds": 2000,
  "playground": 2001,
  "except": 2002,
  "ent": 2003,
  "maxillofacial": 2004,
  "[restaurant_postcode]": 2005,
  "database": 2006,
  "used": 2007,
  "[hospital_address]": 2008,
  "pediatric": 2009,
  "workers": 2010,
  "arenas": 2011,
  "multi": 2012,
  "started": 2013,
  "urgently": 2014,
  "strotford": 2015,
  "mix": 2016,
  "knowing": 2017,
  "hanging": 2018,
  "entree": 2019,
  "specifcally": 2020,
  "adventurous": 2021,
  "scale": 2022,
  "follow": 2023,
  "specifics": 2024,
  "groovy": 2025,
  "$[value_count]": 2026,
  "mahal": 2027,
  "pub": 2028,
  "stolen": 2029,
  "believing": 2030,
  "paint": 2031,
  "events": 2032,
  "supervisor": 2033,
  "adjust": 2034,
  "blessed": 2035,
  "referral": 2036,
  "positive": 2037,
  "casual": 2038,
  "ambulance": 2039,
  "stortfod": 2040,
  "bender": 2041,
  "abou": 2042,
  "gandhi": 2043,
  "hogwarts": 2044,
  "meed": 2045,
  "ages": 2046,
  "stress": 2047,
  "ought": 2048,
  "relatives": 2049,
  "stafford": 2050,
  "fender": 2051,
  "oral": 2052,
  "bumped": 2053,
  "pasquale": 2054,
  "appropriate": 2055,
  "pricy": 2056,
  "fully": 2057,
  "travelers": 2058,
  "dude": 2059,
  "happening": 2060,
  "suite": 2061,
  "written": 2062,
  "mostly": 2063,
  "southside": 2064,
  "favorites": 2065,
  "desire": 2066,
  "doable": 2067,
  "speed": 2068,
  "em": 2069,
  "requesting": 2070,
  "settles": 2071,
  "traveler": 2072,
  "eateries": 2073,
  "leisure": 2074,
  "campus": 2075,
  "overnight": 2076,
  "package": 2077,
  "antiques": 2078,
  "sick": 2079,
  "folks": 2080,
  "leichester": 2081,
  "missed": 2082,
  "est": 2083,
  "tasty": 2084,
  "screaming": 2085,
  "closeby": 2086,
  "cusine": 2087,
  "abut": 2088,
  "attitude": 2089,
  "availabe": 2090,
  "lecester": 2091,
  "etc": 2092,
  "gold": 2093,
  "relieved": 2094,
  "ty": 2095,
  "typical": 2096,
  "drinks": 2097,
  "regular": 2098,
  "prince": 2099,
  "thorough": 2100,
  "eurology": 2101,
  "accomodations": 2102,
  "plane": 2103,
  "jinling": 2104,
  "fin": 2105,
  "goo": 2106,
  "clients": 2107,
  "oddly": 2108,
  "somewhat": 2109,
  "modify": 2110,
  "ideals": 2111,
  "training": 2112,
  "anatoilia": 2113,
  "planing": 2114,
  "[restaurant_phone]": 2115,
  "smart": 2116,
  "palce": 2117,
  "lime": 2118,
  "situation": 2119,
  "students": 2120,
  "passed": 2121,
  "performances": 2122,
  "dough": 2123,
  "hating": 2124,
  "fourty": 2125,
  "[hospital_postcode]": 2126,
  "calendar": 2127,
  "addenbrrokes": 2128,
  "kidding": 2129,
  "holel": 2130,
  "austalasian": 2131,
  "requre": 2132,
  "clare": 2133,
  "furthuer": 2134,
  "queens": 2135,
  "moderite": 2136,
  "scraped": 2137,
  "acknowledge": 2138,
  "tall": 2139,
  "monument": 2140,
  "treatment": 2141,
  "lodege": 2142,
  "following": 2143,
  "private": 2144,
  "smh": 2145,
  "sorting": 2146,
  "liked": 2147,
  "thnks": 2148,
  "politely": 2149,
  "resaturant": 2150,
  "physician": 2151,
  "note": 2152,
  "neighborhhood": 2153,
  "independently": 2154,
  "wealthy": 2155,
  "eritean": 2156,
  "comfirm": 2157,
  "safety": 2158,
  "buff": 2159,
  "cembridge": 2160,
  "cose": 2161,
  "maximum": 2162,
  "volkswagen": 2163,
  "smoothly": 2164,
  "sea": 2165,
  "lifesaver": 2166,
  "festivals": 2167,
  "ould": 2168,
  "quest": 2169,
  "leav": 2170,
  "reversed": 2171,
  "pocket": 2172,
  "boos": 2173,
  "bristish": 2174,
  "notify": 2175,
  "adderss": 2176,
  "sightseers": 2177,
  "taj": 2178,
  "roles": 2179,
  "gethering": 2180,
  "everybody": 2181,
  "quiet": 2182,
  "tiem": 2183,
  "shame": 2184,
  "peterbourgh": 2185,
  "vascular": 2186,
  "plastic": 2187,
  "scudamores": 2188,
  "identify": 2189,
  "resrvation": 2190,
  "that'it": 2191,
  "hidden": 2192,
  "talbe": 2193,
  "colege": 2194,
  "valid": 2195,
  "mea": 2196,
  "vin": 2197,
  "du": 2198,
  "categories": 2199,
  "choise": 2200,
  "normal": 2201,
  "terribly": 2202,
  "iam": 2203,
  "recoomend": 2204,
  "slide": 2205,
  "i'l": 2206,
  "shadai": 2207,
  "fer": 2208,
  "don''t": 2209,
  "nados": 2210,
  "guidance": 2211,
  "ibiza": 2212,
  "allergies": 2213,
  "squalour": 2214,
  "dj": 2215,
  "aims": 2216,
  "sell": 2217,
  "reputation": 2218,
  "definately": 2219,
  "departung": 2220,
  "replacement": 2221,
  "swimiming": 2222,
  "ranked": 2223,
  "tampa": 2224,
  "bay": 2225,
  "atmosphere": 2226,
  "florida": 2227,
  "firstly": 2228,
  "tiger": 2229,
  "[value_count]am": 2230,
  "determine": 2231,
  "getme": 2232,
  "cruisers": 2233,
  "parkland": 2234,
  "packing": 2235,
  "apology": 2236,
  "transporting": 2237,
  "yopu": 2238,
  "addresss": 2239,
  "r": 2240,
  "notice": 2241,
  "margarita": 2242,
  "jumbled": 2243,
  "brain": 2244,
  "mucy": 2245,
  "fid": 2246,
  "bournemouth": 2247,
  "accidentally": 2248,
  "constrained": 2249,
  "altercation": 2250,
  "beforehand": 2251,
  "auto": 2252,
  "parkin": 2253,
  "informing": 2254,
  "visited": 2255,
  "contrary": 2256,
  "answering": 2257,
  "plcae": 2258,
  "interned": 2259,
  "busy": 2260,
  "cancellation": 2261,
  "spelling": 2262,
  "styled": 2263,
  "[value_count]rd": 2264,
  "tech": 2265,
  "mr": 2266,
  "zmzlmlr[value_count]": 2267,
  "snappy": 2268,
  "obvious": 2269,
  "accomidate": 2270,
  "band": 2271,
  "venture": 2272,
  "itshould": 2273,
  "limit": 2274,
  "xxxx": 2275,
  "class": 2276,
  "wild": 2277,
  "cineme": 2278,
  "pertaining": 2279,
  "contacted": 2280,
  "marys": 2281,
  "perimeters": 2282,
  "features": 2283,
  "shot": 2284,
  "indiian": 2285,
  "saurday": 2286,
  "landmarks": 2287,
  "extraordinary": 2288,
  "losing": 2289,
  "discovering": 2290,
  "byard": 2291,
  "junior": 2292,
  "ironing": 2293,
  "text": 2294,
  "wrote": 2295,
  "luch": 2296,
  "stingy": 2297,
  "avoid": 2298,
  "hank": 2299,
  "foodie": 2300,
  "sand": 2301,
  "age": 2302,
  "wedensday": 2303,
  "temporary": 2304,
  "amusement": 2305,
  "eyes": 2306,
  "byart": 2307,
  "vendors": 2308,
  "reese": 2309,
  "refuse": 2310,
  "studying": 2311,
  "awesomeness": 2312,
  "filled": 2313,
  "stressed": 2314,
  "carribean": 2315,
  "shortening": 2316,
  "italain": 2317,
  "restarant": 2318,
  "architect": 2319,
  "crowd": 2320,
  "witherspoon": 2321,
  "tursday": 2322,
  "canbridge": 2323,
  "muslim": 2324,
  "yu[value_count]moahh": 2325,
  "willrecomend": 2326,
  "chekc": 2327,
  "afterall": 2328,
  "movies": 2329,
  "agree": 2330,
  "hous": 2331,
  "allenball": 2332,
  "therefore": 2333,
  "au": 2334,
  "demanding": 2335,
  "multo": 2336,
  "thursdays": 2337,
  "servers": 2338,
  "flight": 2339,
  "restaruant": 2340,
  "value": 2341,
  "botanical": 2342,
  "buzz": 2343,
  "hosons": 2344,
  "unnecessarily": 2345,
  "wires": 2346,
  "serious": 2347,
  "experiment": 2348,
  "fyne": 2349,
  "lock": 2350,
  "salon": 2351,
  "revoir": 2352,
  "andd": 2353,
  "extended": 2354,
  "busting": 2355,
  "common": 2356,
  "lookingfor": 2357,
  "brunch": 2358,
  "accurate": 2359,
  "adds": 2360,
  "reimbursement": 2361,
  "stickler": 2362,
  "personally": 2363,
  "lookng": 2364,
  "informatin": 2365,
  "knacks": 2366,
  "knick": 2367,
  "raves": 2368,
  "cause": 2369,
  "remainder": 2370,
  "knows": 2371,
  "seeng": 2372,
  "foward": 2373,
  "splurge": 2374,
  "boook": 2375,
  "eventually": 2376,
  "gynecology": 2377,
  "longs": 2378,
  "firday": 2379,
  "trin": 2380,
  "messed": 2381,
  "condition": 2382,
  "fullest": 2383,
  "lottery": 2384,
  "won": 2385,
  "successfully": 2386,
  "orthopaedics": 2387,
  "surprised": 2388,
  "truly": 2389,
  "n\\by": 2390,
  "stansteadthrough": 2391,
  "funhouse": 2392,
  "that`s": 2393,
  "quantity": 2394,
  "getaway": 2395,
  "truama": 2396,
  "summary": 2397,
  "lift": 2398,
  "apart": 2399,
  "cottage": 2400,
  "normally": 2401,
  "suggetions": 2402,
  "nthe": 2403,
  "excursion": 2404,
  "oooh": 2405,
  "destined": 2406,
  "polunesian": 2407,
  "impressive": 2408,
  "arcon": 2409,
  "impartial": 2410,
  "fins": 2411,
  "wednsday": 2412,
  "moly": 2413,
  "shound": 2414,
  "worth": 2415,
  "unrated": 2416,
  "ggo": 2417,
  "desperate": 2418,
  "dinning": 2419,
  "brassiere": 2420,
  "roundtrip": 2421,
  "thatnk": 2422,
  "romantic": 2423,
  "shops": 2424,
  "chip": 2425,
  "steveanage": 2426,
  "dads": 2427,
  "alkso": 2428,
  "curiosity": 2429,
  "attract": 2430,
  "siagon": 2431,
  "official": 2432,
  "replied": 2433,
  "elderly": 2434,
  "medicine": 2435,
  "acute": 2436,
  "jamican": 2437,
  "bood": 2438,
  "plox": 2439,
  "guessing": 2440,
  "shuttle": 2441,
  "dojo": 2442,
  "nooodle": 2443,
  "properties": 2444,
  "shoes": 2445,
  "refer": 2446,
  "nature": 2447,
  "legitimate": 2448,
  "wednesdat": 2449,
  "joining": 2450,
  "adam": 2451,
  "june": 2452,
  "track": 2453,
  "departiung": 2454,
  "hunting": 2455,
  "that't": 2456,
  "frm": 2457,
  "narrowing": 2458,
  "musems": 2459,
  "ethiopian": 2460,
  "hair": 2461,
  "gather": 2462,
  "greate": 2463,
  "act": 2464,
  "resaurant": 2465,
  "portugeuese": 2466,
  "petterborough": 2467,
  "desired": 2468,
  "co": 2469,
  "scudmores": 2470,
  "postcdode": 2471,
  "extend": 2472,
  "thusday": 2473,
  "okey": 2474,
  "erm": 2475,
  "k": 2476,
  "arrvie": 2477,
  "woes": 2478,
  "betcha": 2479,
  "recent": 2480,
  "modified": 2481,
  "riser": 2482,
  "[value_count]people": 2483,
  "tepin": 2484,
  "ii'd": 2485,
  "sirens": 2486,
  "skimping": 2487,
  "sonds": 2488,
  "sunrise": 2489,
  "educational": 2490,
  "safe": 2491,
  "strapped": 2492,
  "reff": 2493,
  "mispoke": 2494,
  "hote": 2495,
  "miscommunicated": 2496,
  "uuh": 2497,
  "er": 2498,
  "games": 2499,
  "retry": 2500,
  "astropub": 2501,
  "resteraunt": 2502,
  "pamphlet": 2503,
  "ticketss": 2504,
  "fond": 2505,
  "stunning": 2506,
  "sestaurant": 2507,
  "samples": 2508,
  "goig": 2509,
  "brookshite": 2510,
  "thast": 2511,
  "solved": 2512,
  "curiousity": 2513,
  "stevange": 2514,
  "weelkend": 2515,
  "older": 2516,
  "alyesbray": 2517,
  "machine": 2518,
  "thurdsday": 2519,
  "trail": 2520,
  "leiceister": 2521,
  "realm": 2522,
  "strength": 2523,
  "biggest": 2524,
  "bugged": 2525,
  "frills": 2526,
  "heck": 2527,
  "supplied": 2528,
  "aplha": 2529,
  "coud": 2530,
  "boring": 2531,
  "centra": 2532,
  "zizzi": 2533,
  "pliz": 2534,
  "row": 2535,
  "sortford": 2536,
  "ruskin": 2537,
  "regency": 2538,
  "honda": 2539,
  "eve": 2540,
  "white": 2541,
  "watching": 2542,
  "alley": 2543,
  "spectrum": 2544,
  "vary": 2545,
  "status": 2546,
  "clean": 2547,
  "gursthouse": 2548,
  "bnook": 2549,
  "[value_count]star": 2550,
  "uhh": 2551,
  "mile": 2552,
  "noontime": 2553,
  "malay": 2554,
  "takeaway": 2555,
  "pizzas": 2556,
  "states": 2557,
  "deserve": 2558,
  "insisted": 2559,
  "rebook": 2560,
  "famous": 2561,
  "gxqzcbl[value_count]": 2562,
  "buses": 2563,
  "requiring": 2564,
  "bplease": 2565,
  "decently": 2566,
  "rose": 2567,
  "peoople": 2568,
  "toodles": 2569,
  "jacuzzi": 2570,
  "raving": 2571,
  "york": 2572,
  "mysterious": 2573,
  "backing": 2574,
  "bastille": 2575,
  "scatterbrained": 2576,
  "hectic": 2577,
  "chances": 2578,
  "longon": 2579,
  "byeeee": 2580,
  "scrape": 2581,
  "correctly": 2582,
  "attactions": 2583,
  "exotic": 2584,
  "luxorious": 2585,
  "ave": 2586,
  "h": 2587,
  "spacy": 2588,
  "often": 2589,
  "arms": 2590,
  "confidence": 2591,
  "inspire": 2592,
  "tip": 2593,
  "idf": 2594,
  "lensdield": 2595,
  "thanky": 2596,
  "somwehere": 2597,
  "cenre": 2598,
  "answers": 2599,
  "drops": 2600,
  "whoop": 2601,
  "whip": 2602,
  "ranging": 2603,
  "satrday": 2604,
  "vy": 2605,
  "alll": 2606,
  "cn[value_count]en": 2607,
  "epensive": 2608,
  "[value_count]days": 2609,
  "binh": 2610,
  "enemies": 2611,
  "frugal": 2612,
  "atractions": 2613,
  "unnamed": 2614,
  "wouls": 2615,
  "attempting": 2616,
  "traveller": 2617,
  "[value_count]me": 2618,
  "cambirdge": 2619,
  "yessiree": 2620,
  "nil": 2621,
  "aft": 2622,
  "ahhh": 2623,
  "largest": 2624,
  "atrain": 2625,
  "guesthous": 2626,
  "gastropod": 2627,
  "volunteer": 2628,
  "brasseri": 2629,
  "mill": 2630,
  "locals": 2631,
  "findme": 2632,
  "rigamarole": 2633,
  "bedouln": 2634,
  "pesticide": 2635,
  "drink": 2636,
  "diffidently": 2637,
  "cousin": 2638,
  "mail": 2639,
  "media": 2640,
  "social": 2641,
  "stranded": 2642,
  "easiest": 2643,
  "ridiculous": 2644,
  "jump": 2645,
  "color": 2646,
  "pererborough": 2647,
  "arrested": 2648,
  "parting": 2649,
  "himself": 2650,
  "whew": 2651,
  "bringham": 2652,
  "wendesday": 2653,
  "landmark": 2654,
  "faintest": 2655,
  "llike": 2656,
  "europeon": 2657,
  "aa": 2658,
  "sorrow": 2659,
  "alter": 2660,
  "suggesting": 2661,
  "plase": 2662,
  "atke": 2663,
  "[value_count]l[value_count]": 2664,
  "biships": 2665,
  "ample": 2666,
  "liverpoool": 2667,
  "stations": 2668,
  "flinches": 2669,
  "reccomendations": 2670,
  "g": 2671,
  "bug": 2672,
  "loud": 2673,
  "alarm": 2674,
  "shaddi": 2675,
  "duxford": 2676,
  "tou": 2677,
  "customers": 2678,
  "wednes": 2679,
  "towncentre": 2680,
  "delay": 2681,
  "ro": 2682,
  "varisty": 2683,
  "leicster": 2684,
  "securing": 2685,
  "stat": 2686,
  "giveme": 2687,
  "persistence": 2688,
  "nit": 2689,
  "cater": 2690,
  "huesthouse": 2691,
  "shanghi": 2692,
  "advantage": 2693,
  "tocambridge": 2694,
  "unprofessional": 2695,
  "atheist": 2696,
  "attractinon": 2697,
  "byards": 2698,
  "nymber": 2699,
  "rush": 2700,
  "eupoean": 2701,
  "added": 2702,
  "possibe": 2703,
  "letter": 2704,
  "safer": 2705,
  "sparing": 2706,
  "plant": 2707,
  "masala": 2708,
  "tikka": 2709,
  "bew": 2710,
  "soundss": 2711,
  "accommodates": 2712,
  "films": 2713,
  "attratiction": 2714,
  "horrible": 2715,
  "cuts": 2716,
  "specialize": 2717,
  "pre": 2718,
  "strong": 2719,
  "un": 2720,
  "ofcourse": 2721,
  "suits": 2722,
  "beyond": 2723,
  "perchance": 2724,
  "strretm": 2725,
  "industry": 2726,
  "tesla": 2727,
  "timeframe": 2728,
  "thurtsday": 2729,
  "storthford": 2730,
  "catchy": 2731,
  "alternatives": 2732,
  "ss": 2733,
  "mulitple": 2734,
  "completely": 2735,
  "promised": 2736,
  "restate": 2737,
  "apha": 2738,
  "confrmation": 2739,
  "konnichiwa": 2740,
  "office": 2741,
  "mdoerate": 2742,
  "ina": 2743,
  "avaible": 2744,
  "critera": 2745,
  "possibility": 2746,
  "tommorrow": 2747,
  "ereference": 2748,
  "overpriced": 2749,
  "hop": 2750,
  "sun": 2751,
  "likewise": 2752,
  "brazliian": 2753,
  "[value_count]![value_count]": 2754,
  "outdoors": 2755,
  "entertain": 2756,
  "cambots": 2757,
  "fortune": 2758,
  "arranagments": 2759,
  "wheel": 2760,
  "rererence": 2761,
  "nonstop": 2762,
  "architectures": 2763,
  "bothered": 2764,
  "answer": 2765,
  "strevenage": 2766,
  "copy": 2767,
  "ugh": 2768,
  "basement": 2769,
  "bargain": 2770,
  "immediate": 2771,
  "record": 2772,
  "teams": 2773,
  "semiprofessional": 2774,
  "professional": 2775,
  "article": 2776,
  "writing": 2777,
  "winner": 2778,
  "spoiling": 2779,
  "additionally": 2780,
  "albeit": 2781,
  "deadline": 2782,
  "psychic": 2783,
  "caffee": 2784,
  "guys": 2785,
  "uyou": 2786,
  "punte": 2787,
  "saves": 2788,
  "according": 2789,
  "exercise": 2790,
  "`": 2791,
  "issues": 2792,
  "systems": 2793,
  "askin": 2794,
  "goof": 2795,
  "lose": 2796,
  "stepping": 2797,
  "spoke": 2798,
  "bracket": 2799,
  "coul": 2800,
  "birminggam": 2801,
  "tuestday": 2802,
  "lasts": 2803,
  "seminar": 2804,
  "betweentwo": 2805,
  "oriented": 2806,
  "dreams": 2807,
  "wildest": 2808,
  "musuem": 2809,
  "steakhouses": 2810,
  "miltion": 2811,
  "perferect": 2812,
  "scatter": 2813,
  "newest": 2814,
  "mac": 2815,
  "admit": 2816,
  "crane": 2817,
  "niles": 2818,
  "frasier": 2819,
  "taxie": 2820,
  "kindness": 2821,
  "plerase": 2822,
  "recommened": 2823,
  "skipped": 2824,
  "hmmmm": 2825,
  "upsetting": 2826,
  "stasted": 2827,
  "fishing": 2828,
  "noticed": 2829,
  "reccommendation": 2830,
  "ciao": 2831,
  "kick": 2832,
  "cheese": 2833,
  "wfif": 2834,
  "leiceter": 2835,
  "itinerary": 2836,
  "trend": 2837,
  "particulars": 2838,
  "inclue": 2839,
  "ordering": 2840,
  "incldes": 2841,
  "departng": 2842,
  "befor": 2843,
  "hep": 2844,
  "dime": 2845,
  "stanstedt": 2846,
  "nickel": 2847,
  "wee": 2848,
  "meetings": 2849,
  "rave": 2850,
  "members": 2851,
  "angry": 2852,
  "pleez": 2853,
  "peeps": 2854,
  "smooshed": 2855,
  "oakay": 2856,
  "quals": 2857,
  "clinic": 2858,
  "reverse": 2859,
  "pages": 2860,
  "caroline": 2861,
  "catalam": 2862,
  "stroll": 2863,
  "unlucky": 2864,
  "pity": 2865,
  "ext": 2866,
  "thatk": 2867,
  "unwind": 2868,
  "recommending": 2869,
  "expecting": 2870,
  "prepare": 2871,
  "browse": 2872,
  "sentence": 2873,
  "final": 2874,
  "clarifying": 2875,
  "brained": 2876,
  "trusday": 2877,
  "aboutdo": 2878,
  "rep": 2879,
  "kingls": 2880,
  "switch": 2881,
  "arribe": 2882,
  "broaden": 2883,
  "throwing": 2884,
  "flavor": 2885,
  "buddies": 2886,
  "thru": 2887,
  "lately": 2888,
  "canbrige": 2889,
  "ontime": 2890,
  "wondered": 2891,
  "fills": 2892,
  "sometthing": 2893,
  "timing": 2894,
  "shell": 2895,
  "woodbridge": 2896,
  "that'a": 2897,
  "concerts": 2898,
  "pedestrian": 2899,
  "qualifications": 2900,
  "mark": 2901,
  "dancing": 2902,
  "reached": 2903,
  "lettuce": 2904,
  "slug": 2905,
  "thinks": 2906,
  "mum": 2907,
  "massive": 2908,
  "word": 2909,
  "geared": 2910,
  "obligations": 2911,
  "[value_count]bb[value_count]b[value_count]a": 2912,
  "ass": 2913,
  "nap": 2914,
  "pharmacy": 2915,
  "ache": 2916,
  "stomach": 2917,
  "ig": 2918,
  "hankering": 2919,
  "twice": 2920,
  "laws": 2921,
  "infoemation": 2922,
  "uncle": 2923,
  "birmimgnham": 2924,
  "mturk": 2925,
  "message": 2926,
  "potential": 2927,
  "airbnb": 2928,
  "regards": 2929,
  "searches": 2930,
  "eater": 2931,
  "wise": 2932,
  "eliminate": 2933,
  "camberidge": 2934,
  "altogether": 2935,
  "bunches": 2936,
  "ship": 2937,
  "lover": 2938,
  "celebration": 2939,
  "diners": 2940,
  "peaople": 2941,
  "attributes": 2942,
  "soudns": 2943,
  "originally": 2944,
  "sedan": 2945,
  "toatl": 2946,
  "regent": 2947,
  "aloha": 2948,
  "energy": 2949,
  "credit": 2950,
  "someting": 2951,
  "welk": 2952,
  "servicing": 2953,
  "companions": 2954,
  "tkae": 2955,
  "sworn": 2956,
  "packages": 2957,
  "non": 2958,
  "breath": 2959,
  "baited": 2960,
  "anticipate": 2961,
  "equipment": 2962,
  "tuedsday": 2963,
  "owns": 2964,
  "birmngham": 2965,
  "phoen": 2966,
  "locally": 2967,
  "sd": 2968,
  "williams": 2969,
  "granted": 2970,
  "overdue": 2971,
  "classic": 2972,
  "acan": 2973,
  "therte": 2974,
  "gardina": 2975,
  "palces": 2976,
  "paprika": 2977,
  "goulash": 2978,
  "crawl": 2979,
  "unreal": 2980,
  "entrence": 2981,
  "particualr": 2982,
  "instant": 2983,
  "anatoli": 2984,
  "firat": 2985,
  "court": 2986,
  "ridgewood": 2987,
  "leincester": 2988,
  "dog": 2989,
  "fridya": 2990,
  "thhe": 2991,
  "birminham": 2992,
  "sum": 2993,
  "brah": 2994,
  "joints": 2995,
  "surrounding": 2996,
  "inquiring": 2997,
  "valuables": 2998,
  "caius": 2999,
  "inconvenient": 3000,
  "[value_count]qvodjmi": 3001,
  "mutiple": 3002,
  "tacos": 3003,
  "rain": 3004,
  "suggestfor": 3005,
  "iin": 3006,
  "owner": 3007,
  "salsas": 3008,
  "mess": 3009,
  "foggy": 3010,
  "upper": 3011,
  "waill": 3012,
  "liver": 3013,
  "reschedule": 3014,
  "communte": 3015,
  "gt": 3016,
  "win": 3017,
  "finishing": 3018,
  "condo": 3019,
  "mouse": 3020,
  "crosses": 3021,
  "mickey": 3022,
  "rocks": 3023,
  "polenta": 3024,
  "[police_phone]": 3025,
  "mugged": 3026,
  "informant": 3027,
  "crj[value_count]bqkh": 3028,
  "gbp": 3029,
  "trashy": 3030,
  "migranes": 3031,
  "meto": 3032,
  "tandoon": 3033,
  "deoendancy": 3034,
  "itermediate": 3035,
  "nightmare": 3036,
  "catching": 3037,
  "bistoro": 3038,
  "backstreet": 3039,
  "unlisted": 3040,
  "suprise": 3041,
  "liking": 3042,
  "dip": 3043,
  "strip": 3044,
  "beach": 3045,
  "loaded": 3046,
  "overbooked": 3047,
  "eager": 3048,
  "loal": 3049,
  "grafton": 3050,
  "store": 3051,
  "wok": 3052,
  "isenough": 3053,
  "wallet": 3054,
  "irony": 3055,
  "reread": 3056,
  "compliment": 3057,
  "hiya": 3058,
  "heartbroken": 3059,
  "%": 3060,
  "drivers": 3061,
  "various": 3062,
  "fifteen": 3063,
  "andrew": 3064,
  "[value_count]x[value_count]en[value_count]": 3065,
  "museaum": 3066,
  "tasce": 3067,
  "aat": 3068,
  "palance": 3069,
  "cooperative": 3070,
  "ypou": 3071,
  "client": 3072,
  "bmw": 3073,
  "scudamore": 3074,
  "suffered": 3075,
  "luckily": 3076,
  "discounts": 3077,
  "van": 3078,
  "aside": 3079,
  "corkhouse": 3080,
  "[hotel_reference]": 3081,
  "bi": 3082,
  "thuesday": 3083,
  "snippy": 3084,
  "level": 3085,
  "groupon": 3086,
  "bird": 3087,
  "suites": 3088,
  "thatnis": 3089,
  "aid": 3090,
  "dang": 3091,
  "morden": 3092,
  "aiport": 3093,
  "relax": 3094,
  "hiking": 3095,
  "posh": 3096,
  "admissoin": 3097,
  "kpfta[value_count]": 3098,
  "ell": 3099,
  "cristi": 3100,
  "corpus": 3101,
  "clsoe": 3102,
  "riveboat": 3103,
  "g'bye": 3104,
  "i''ll": 3105,
  "accomadations": 3106,
  "switching": 3107,
  "debit": 3108,
  "destroy": 3109,
  "reply": 3110,
  "leavers": 3111,
  "economy": 3112,
  "ford": 3113,
  "wili": 3114,
  "situated": 3115,
  "valet": 3116,
  "curmudgeon": 3117,
  "settling": 3118,
  "basically": 3119,
  "pepole": 3120,
  "portions": 3121,
  "f": 3122,
  "where'a": 3123,
  "opps": 3124,
  "tandorri": 3125,
  "hotell": 3126,
  "frustrating": 3127,
  "him": 3128,
  "advised": 3129,
  "attached": 3130,
  "paid": 3131,
  "thirsday": 3132,
  "query": 3133,
  "finest": 3134,
  "wouold": 3135,
  "careful": 3136,
  "caamboats": 3137,
  "gastrointestinal": 3138,
  "hepatobillary": 3139,
  "connectivity": 3140,
  "indication": 3141,
  "adjoining": 3142,
  "greg": 3143,
  "anyhow": 3144,
  "lanken": 3145,
  "t[value_count]kc[value_count]": 3146,
  "rout": 3147,
  "mutilple": 3148,
  "goint": 3149,
  "beside": 3150,
  "placem": 3151,
  "precisely": 3152,
  "hung": 3153,
  "parties": 3154,
  "whateveryou": 3155,
  "restauarant": 3156,
  "wets": 3157,
  "joke": 3158,
  "poor": 3159,
  "brady": 3160,
  "dismissed": 3161,
  "glastonbury": 3162,
  "worthwhile": 3163,
  "accomadation": 3164,
  "model": 3165,
  "jinlin": 3166,
  "woule": 3167,
  "insists": 3168,
  "tat": 3169,
  "cheapish": 3170,
  "navigate": 3171,
  "z": 3172,
  "items": 3173,
  "steam": 3174,
  "archeological": 3175,
  "host": 3176,
  "hotpot": 3177,
  "offensive": 3178,
  "arthurian": 3179,
  "gun": 3180,
  "jumped": 3181,
  "duh": 3182,
  "bookit": 3183,
  "nigthclubs": 3184,
  "nasty": 3185,
  "seventy": 3186,
  "nighclub": 3187,
  "cmabridge": 3188,
  "billing": 3189,
  "accomodating": 3190,
  "accually": 3191,
  "recap": 3192,
  "entirely": 3193,
  "yor": 3194,
  "you've": 3195,
  "mondern": 3196,
  "ooked": 3197,
  "wil": 3198,
  "size": 3199,
  "cage": 3200,
  "rosas": 3201,
  "spellingcity": 3202,
  "varied": 3203,
  "tge": 3204,
  "laiter": 3205,
  "specials": 3206,
  "oppss": 3207,
  "broxbourbe": 3208,
  "yelp": 3209,
  "stevens": 3210,
  "repeating": 3211,
  "singapore": 3212,
  "permission": 3213,
  "collect": 3214,
  "crare": 3215,
  "severing": 3216,
  "redo": 3217,
  "reco": 3218,
  "tremendous": 3219,
  "incredibly": 3220,
  "booing": 3221,
  "prepared": 3222,
  "searched": 3223,
  "inside": 3224,
  "join": 3225,
  "brutish": 3226,
  "deem": 3227,
  "pets": 3228,
  "retained": 3229,
  "complain": 3230,
  "bisheops": 3231,
  "ostcode": 3232,
  "fibne": 3233,
  "converstion": 3234,
  "stone": 3235,
  "severely": 3236,
  "somwhere": 3237,
  "loop": 3238,
  "excuse": 3239,
  "gray": 3240,
  "kicking": 3241,
  "sillly": 3242,
  "bro": 3243,
  "lady": 3244,
  "transit": 3245,
  "sfor": 3246,
  "cityrooms": 3247,
  "increase": 3248,
  "[attraction_postcode]": 3249,
  "glodal": 3250,
  "swimmingpools": 3251,
  "wished": 3252,
  "peaceful": 3253,
  "radically": 3254,
  "approve": 3255,
  "supervisors": 3256,
  "attracion": 3257,
  "competitors": 3258,
  "music": 3259,
  "wensday": 3260,
  "addengrookes": 3261,
  "reiterate": 3262,
  "margerita": 3263,
  "appointments": 3264,
  "accommodating": 3265,
  "classify": 3266,
  "tai": 3267,
  "leas": 3268,
  "conflicting": 3269,
  "misplaced": 3270,
  "clunker": 3271,
  "motorist": 3272,
  "buddy": 3273,
  "accomidations": 3274,
  "inflexible": 3275,
  "coordinate": 3276,
  "alexeander": 3277,
  "and[value_count]": 3278,
  "artists": 3279,
  "awsome": 3280,
  "demand": 3281,
  "firm": 3282,
  "centr": 3283,
  "reccomend": 3284,
  "goden": 3285,
  "particluar": 3286,
  "advic": 3287,
  "efficiency": 3288,
  "expected": 3289,
  "grat": 3290,
  "print": 3291,
  "gardenia": 3292,
  "seemed": 3293,
  "stamps": 3294,
  "churchhill": 3295,
  "shorter": 3296,
  "tome": 3297,
  "goona": 3298,
  "thaaaanks": 3299,
  "minon": 3300,
  "parade": 3301,
  "guesthoise": 3302,
  "stree": 3303,
  "ytoiuy": 3304,
  "bonjour": 3305,
  "soccer": 3306,
  "topic": 3307,
  "dialouge": 3308,
  "ringing": 3309,
  "hobsons": 3310,
  "nowhere": 3311,
  "overly": 3312,
  "concerened": 3313,
  "followed": 3314,
  "companion": 3315,
  "perceptive": 3316,
  "messing": 3317,
  "clue": 3318,
  "atttaction": 3319,
  "anythings": 3320,
  "burden": 3321,
  "eggrolls": 3322,
  "thankful": 3323,
  "andgoodbye": 3324,
  "steep": 3325,
  "woo": 3326,
  "ou": 3327,
  "insist": 3328,
  "peple": 3329,
  "unlikely": 3330,
  "whhat": 3331,
  "yhou": 3332,
  "cheapt": 3333,
  "stands": 3334,
  "toady": 3335,
  "appealing": 3336,
  "title": 3337,
  "rich": 3338,
  "funny": 3339,
  "yippee": 3340,
  "portrait": 3341,
  "nothern": 3342,
  "willl": 3343,
  "stansed": 3344,
  "splashing": 3345,
  "long[value_count]": 3346,
  "refried": 3347,
  "jaja": 3348,
  "misread": 3349,
  "bench": 3350,
  "snatched": 3351,
  "purse": 3352,
  "frees": 3353,
  "fill": 3354,
  "raiting": 3355,
  "rez": 3356,
  "avaion": 3357,
  "weirdo": 3358,
  "chiense": 3359,
  "turned": 3360,
  "yuck": 3361,
  "misunderstandings": 3362,
  "taondoori": 3363,
  "terrible": 3364,
  "exepensive": 3365,
  "punishment": 3366,
  "glutton": 3367,
  "straight": 3368,
  "spoil": 3369,
  "tp": 3370,
  "inclusive": 3371,
  "unplug": 3372,
  "liar": 3373,
  "pathological": 3374,
  "al": 3375,
  "approximately": 3376,
  "[hotel_postcode]": 3377,
  "cambridgeshire": 3378,
  "charging": 3379,
  "s[value_count]": 3380,
  "starbucks": 3381,
  "tells": 3382,
  "sucks": 3383,
  "america": 3384,
  "cops": 3385,
  "attacked": 3386,
  "facility": 3387,
  "eww": 3388,
  "hrs": 3389,
  "staurday": 3390,
  "tapas": 3391,
  "hottest": 3392,
  "actaully": 3393,
  "stops": 3394,
  "pembroke": 3395,
  "peole": 3396,
  "pronto": 3397,
  "pieces": 3398,
  "wenesday": 3399,
  "original": 3400,
  "impossible": 3401,
  "citi": 3402,
  "indiana": 3403,
  "understanding": 3404,
  "share": 3405,
  "noise": 3406,
  "background": 3407,
  "entertaiment": 3408,
  "kyou": 3409,
  "wanna": 3410,
  "featuring": 3411,
  "accepting": 3412,
  "viviting": 3413,
  "mixup": 3414,
  "comparable": 3415,
  "frist": 3416,
  "warkwoth": 3417,
  "bedroom": 3418,
  "reside": 3419,
  "henever": 3420,
  "[value_count]#[value_count]": 3421,
  "als": 3422,
  "moon": 3423,
  "thankl": 3424,
  "brouxbourne": 3425,
  "wednedady": 3426,
  "galary": 3427,
  "ga[value_count]mu[value_count]u": 3428,
  "exhausted": 3429,
  "infor": 3430,
  "astray": 3431,
  "gone": 3432,
  "etiher": 3433,
  "future": 3434,
  "breafast": 3435,
  "press": 3436,
  "birmignham": 3437,
  "clarified": 3438,
  "chips": 3439,
  "tehcnology": 3440,
  "judgement": 3441,
  "afresh": 3442,
  "trinity": 3443,
  "digressing": 3444,
  "nightlclub": 3445,
  "clsoer": 3446,
  "di": 3447,
  "indifferent": 3448,
  "magdelene": 3449,
  "bookn": 3450,
  "carolina": 3451,
  "biking": 3452,
  "carribbean": 3453,
  "ut": 3454,
  "whee": 3455,
  "restairant": 3456,
  "elegant": 3457,
  "recommrndation": 3458,
  "dope": 3459,
  "thaank": 3460,
  "lives": 3461,
  "slots": 3462,
  "i`d": 3463,
  "ser": 3464,
  "cb[value_count]vvf[value_count]": 3465,
  "heads": 3466,
  "critical": 3467,
  "slightly": 3468,
  "olease": 3469,
  "birgmingham": 3470,
  "beast": 3471,
  "killing": 3472,
  "heatwave": 3473,
  "separately": 3474,
  "relaxing": 3475,
  "thin": 3476,
  "semi": 3477,
  "thyat": 3478,
  "ethnic": 3479,
  "rocked": 3480,
  "warworth": 3481,
  "conformation": 3482,
  "applies": 3483,
  "swimmoingpool": 3484,
  "charged": 3485,
  "sould": 3486,
  "moderatly": 3487,
  "brasserie": 3488,
  "birds": 3489,
  "pone": 3490,
  "lso": 3491,
  "misunderstanding": 3492,
  "resources": 3493,
  "ankle": 3494,
  "sprained": 3495,
  "driing": 3496,
  "tend": 3497,
  "economical": 3498,
  "speaking": 3499,
  "asks": 3500,
  "figured": 3501,
  "snoring": 3502,
  "swear": 3503,
  "birdwatching": 3504,
  "view": 3505,
  "unimportant": 3506,
  "farewell": 3507,
  "tootles": 3508,
  "reliable": 3509,
  "reunion": 3510,
  "tommorow": 3511,
  "thee": 3512,
  "exists": 3513,
  "cities": 3514,
  "alike": 3515,
  "exhibitions": 3516,
  "annoying": 3517,
  "ducking": 3518,
  "ugly": 3519,
  "reestaurant": 3520,
  "grafitti": 3521,
  "wandlebery": 3522,
  "neighborhood": 3523,
  "lined": 3524,
  "quarter": 3525,
  "useful": 3526,
  "eaten": 3527,
  "ids": 3528,
  "fror": 3529,
  "swiming": 3530,
  "arrrive": 3531,
  "expedient": 3532,
  "platform": 3533,
  "breaker": 3534,
  "jukebox": 3535,
  "fixed": 3536,
  "ate": 3537,
  "certre": 3538,
  "withouth": 3539,
  "[value_count]nights": 3540,
  "dood": 3541,
  "allrighty": 3542,
  "garbled": 3543,
  "glitch": 3544,
  "wasting": 3545,
  "remove": 3546,
  "heya": 3547,
  "sold": 3548,
  "convinced": 3549,
  "alert": 3550,
  "servings": 3551,
  "skip": 3552,
  "bankok": 3553,
  "seen": 3554,
  "dish": 3555,
  "i'lll": 3556,
  "froms": 3557,
  "disconnect": 3558,
  "corrected": 3559,
  "crucial": 3560,
  "railway": 3561,
  "wiukd": 3562,
  "alysebray": 3563,
  "o'm": 3564,
  "established": 3565,
  "representative": 3566,
  "colleagues": 3567,
  "tyhat": 3568,
  "scheduled": 3569,
  "correction": 3570,
  "wall": 3571,
  "hole": 3572,
  "broke": 3573,
  "netflix": 3574,
  "spicy": 3575,
  "patricks": 3576,
  "nor": 3577,
  "coulc": 3578,
  "pocketbook": 3579,
  "carpool": 3580,
  "skimp": 3581,
  "law": 3582,
  "w": 3583,
  "thankk": 3584,
  "ineed": 3585,
  "partricular": 3586,
  "architecturally": 3587,
  "aslo": 3588,
  "preferrably": 3589,
  "numberes": 3590,
  "entrabnce": 3591,
  "stating": 3592,
  "gee": 3593,
  "standing": 3594,
  "sharp": 3595,
  "guten": 3596,
  "ashely": 3597,
  "story": 3598,
  "lie": 3599,
  "tix": 3600,
  "faxing": 3601,
  "visting": 3602,
  "priiced": 3603,
  "cam": 3604,
  "misunderstood": 3605,
  "snacks": 3606,
  "darling": 3607,
  "sweat": 3608,
  "i'am": 3609,
  "emailing": 3610,
  "poeple": 3611,
  "capable": 3612,
  "thas": 3613,
  "retrieved": 3614,
  "cente": 3615,
  "iayfj[value_count]si": 3616,
  "factor": 3617,
  "crowded": 3618,
  "alesbray": 3619,
  "seasame": 3620,
  "intalian": 3621,
  "wfii": 3622,
  "tahtys": 3623,
  "doors": 3624,
  "hopistal": 3625,
  "pitch": 3626,
  "astroturf": 3627,
  "click": 3628,
  "recomend": 3629,
  "carefully": 3630,
  "passcode": 3631,
  "kross": 3632,
  "restaurnat": 3633,
  "vegan": 3634,
  "b[value_count]irjdnn": 3635,
  "minus": 3636,
  "downing": 3637,
  "hemp": 3638,
  "doctors": 3639,
  "airplane": 3640,
  "among": 3641,
  "expensiove": 3642,
  "fave": 3643,
  "australasian": 3644,
  "[value_count]person": 3645,
  "theie": 3646,
  "butthe": 3647,
  "reminded": 3648,
  "tot": 3649,
  "htel": 3650,
  "bell": 3651,
  "allen": 3652,
  "seated": 3653,
  "amend": 3654,
  "fora": 3655,
  "lodon": 3656,
  "slum": 3657,
  "clarification": 3658,
  "referring": 3659,
  "belt": 3660,
  "culture": 3661,
  "northend": 3662,
  "attempt": 3663,
  "imagine": 3664,
  "dodgy": 3665,
  "olds": 3666,
  "depature": 3667,
  "lkle": 3668,
  "euro": 3669,
  "prive": 3670,
  "ood": 3671,
  "promise": 3672,
  "midst": 3673,
  "volvo": 3674,
  "visits": 3675,
  "manage": 3676,
  "flick": 3677,
  "motel": 3678,
  "tips": 3679,
  "agian": 3680,
  "wiki": 3681,
  "andrews": 3682,
  "hosptital": 3683,
  "helpfulness": 3684,
  "wanta": 3685
}